[{
		"MemberID": "354",
		"ID": "1",
		"OrganizationName": "Advanced Investigation Systems Ltd",
		"MemCat": "N",
		"Format": "1"
	}, {
		"MemberID": "275",
		"ID": "2",
		"OrganizationName": "AECOM",
		"MemCat": "A",
		"Format": "1"
	}, {
		"MemberID": "277",
		"ID": "3",
		"OrganizationName": "Amplus Ltd",
		"MemCat": "B",
		"Format": "1"
	}, {
		"MemberID": "401",
		"ID": "4",
		"OrganizationName": "Andrews Survey",
		"MemCat": "N",
		"Format": "1"
	}, {
		"MemberID": "323",
		"ID": "5",
		"OrganizationName": "Arcadis Geraghty & Miller International Inc",
		"MemCat": "N",
		"Format": "1"
	}, {
		"MemberID": "124",
		"ID": "6",
		"OrganizationName": "Arup Geotechnics",
		"MemCat": "A",
		"Format": "1"
	}, {
		"MemberID": "183",
		"ID": "7",
		"OrganizationName": "Atkins Consultants",
		"MemCat": "A",
		"Format": "1"
	}, {
		"MemberID": "501",
		"ID": "8",
		"OrganizationName": "Autodesk",
		"MemCat": "N",
		"Format": "1"
	}, {
		"MemberID": "375",
		"ID": "9",
		"OrganizationName": "BAE SYSTEMS Environmental",
		"MemCat": "A",
		"Format": "1"
	}, {
		"MemberID": "333",
		"ID": "10",
		"OrganizationName": "Balfour Beatty Major Projects",
		"MemCat": "N",
		"Format": "1"
	}, {
		"MemberID": "252",
		"ID": "11",
		"OrganizationName": "Bechtel",
		"MemCat": "A",
		"Format": "1"
	}, {
		"MemberID": "372",
		"ID": "12",
		"OrganizationName": "Black & Veatch Ltd",
		"MemCat": "A",
		"Format": "1"
	}, {
		"MemberID": "421",
		"ID": "13",
		"OrganizationName": "Boxwood Laboratories Ltd",
		"MemCat": "N",
		"Format": "1"
	}, {
		"MemberID": "342",
		"ID": "14",
		"OrganizationName": "British Waterways",
		"MemCat": "N",
		"Format": "1"
	}, {
		"MemberID": "307",
		"ID": "15",
		"OrganizationName": "Buro Happold, Ground Engineering",
		"MemCat": "A",
		"Format": "1"
	}, {
		"MemberID": "362",
		"ID": "16",
		"OrganizationName": "C Tech Development Corporation",
		"MemCat": "N",
		"Format": "1"
	}, {
		"MemberID": "353",
		"ID": "17",
		"OrganizationName": "Cambridge Insitu",
		"MemCat": "N",
		"Format": "1"
	}, {
		"MemberID": "523",
		"ID": "18",
		"OrganizationName": "Canterbury Archaeological Trust Ltd",
		"MemCat": "N",
		"Format": "1"
	}, {
		"MemberID": "179",
		"ID": "19",
		"OrganizationName": "Casella Stanger",
		"MemCat": "N",
		"Format": "1"
	}, {
		"MemberID": "321",
		"ID": "20",
		"OrganizationName": "China Geo-Engineering Corporation",
		"MemCat": "N",
		"Format": "1"
	}, {
		"MemberID": "208",
		"ID": "21",
		"OrganizationName": "Coffey Geotechnics",
		"MemCat": "A",
		"Format": "1"
	}, {
		"MemberID": "327",
		"ID": "22",
		"OrganizationName": "Concept Site Investigations",
		"MemCat": "N",
		"Format": "1"
	}, {
		"MemberID": "529",
		"ID": "23",
		"OrganizationName": "Construction Testing & Advisory Services",
		"MemCat": "N",
		"Format": "1"
	}, {
		"MemberID": "134",
		"ID": "24",
		"OrganizationName": "Costain Geotechnical Services",
		"MemCat": "B",
		"Format": "1"
	}, {
		"MemberID": "438",
		"ID": "25",
		"OrganizationName": "Datgel Pty Ltd",
		"MemCat": "N",
		"Format": "1"
	}, {
		"MemberID": "439",
		"ID": "26",
		"OrganizationName": "dch Interim Management",
		"MemCat": "N",
		"Format": "1"
	}, {
		"MemberID": "525",
		"ID": "27",
		"OrganizationName": "Derwentside Environmental Testing Services Ltd",
		"MemCat": "N",
		"Format": "1"
	}, {
		"MemberID": "443",
		"ID": "28",
		"OrganizationName": "Donaldson Associates Limited",
		"MemCat": "N",
		"Format": "1"
	}, {
		"MemberID": "348",
		"ID": "29",
		"OrganizationName": "DrilTech Ground Engineering Ltd",
		"MemCat": "N",
		"Format": "1"
	}, {
		"MemberID": "518",
		"ID": "30",
		"OrganizationName": "Earth Science Information Systems Pty Ltd",
		"MemCat": "N",
		"Format": "1"
	}, {
		"MemberID": "366",
		"ID": "31",
		"OrganizationName": "EarthSoft, Inc",
		"MemCat": "N",
		"Format": "1"
	}, {
		"MemberID": "306",
		"ID": "32",
		"OrganizationName": "Eclipse Voelcker Science",
		"MemCat": "N",
		"Format": "1"
	}, {
		"MemberID": "310",
		"ID": "33",
		"OrganizationName": "Ed Wilkins Pty",
		"MemCat": "N",
		"Format": "1"
	}, {
		"MemberID": "422",
		"ID": "34",
		"OrganizationName": "Edafomichaniki S.A.",
		"MemCat": "N",
		"Format": "1"
	}, {
		"MemberID": "500",
		"ID": "35",
		"OrganizationName": "e-Geo",
		"MemCat": "N",
		"Format": "1"
	}, {
		"MemberID": "361",
		"ID": "36",
		"OrganizationName": "Entec UK Ltd",
		"MemCat": "A",
		"Format": "1"
	}, {
		"MemberID": "324",
		"ID": "37",
		"OrganizationName": "Environmental Analysis",
		"MemCat": "N",
		"Format": "1"
	}, {
		"MemberID": "236",
		"ID": "38",
		"OrganizationName": "Environmental Scientifics Group",
		"MemCat": "A",
		"Format": "1"
	}, {
		"MemberID": "492",
		"ID": "39",
		"OrganizationName": "Envirosoil Technologies",
		"MemCat": "N",
		"Format": "1"
	}, {
		"MemberID": "211",
		"ID": "40",
		"OrganizationName": "Fairhurst",
		"MemCat": "A",
		"Format": "1"
	}, {
		"MemberID": "380",
		"ID": "41",
		"OrganizationName": "Ferroday Ltd",
		"MemCat": "N",
		"Format": "1"
	}, {
		"MemberID": "139",
		"ID": "42",
		"OrganizationName": "Fugro",
		"MemCat": "A",
		"Format": "1"
	}, {
		"MemberID": "434",
		"ID": "43",
		"OrganizationName": "Fugro Middle East",
		"MemCat": "A",
		"Format": "1"
	}, {
		"MemberID": "293",
		"ID": "44",
		"OrganizationName": "GeoData Consult",
		"MemCat": "N",
		"Format": "1"
	}, {
		"MemberID": "291",
		"ID": "45",
		"OrganizationName": "GeoDelft Environmental",
		"MemCat": "N",
		"Format": "1"
	}, {
		"MemberID": "367",
		"ID": "46",
		"OrganizationName": "Geoffrey Walton Practice",
		"MemCat": "N",
		"Format": "1"
	}, {
		"MemberID": "437",
		"ID": "47",
		"OrganizationName": "Geognosi SA",
		"MemCat": "N",
		"Format": "1"
	}, {
		"MemberID": "257",
		"ID": "48",
		"OrganizationName": "Geolabs Ltd",
		"MemCat": "A",
		"Format": "1"
	}, {
		"MemberID": "468",
		"ID": "49",
		"OrganizationName": "Geological Survey of Ireland",
		"MemCat": "N",
		"Format": "1"
	}, {
		"MemberID": "537",
		"ID": "50",
		"OrganizationName": "geoSTAND and Associates SA",
		"MemCat": "N",
		"Format": "1"
	}, {
		"MemberID": "490",
		"ID": "51",
		"OrganizationName": "Geotechnical and Environmental Services",
		"MemCat": "N",
		"Format": "1"
	}, {
		"MemberID": "145",
		"ID": "52",
		"OrganizationName": "Geotechnical Consulting Group",
		"MemCat": "A",
		"Format": "1"
	}, {
		"MemberID": "146",
		"ID": "53",
		"OrganizationName": "Geotechnical Engineering Ltd",
		"MemCat": "A",
		"Format": "1"
	}, {
		"MemberID": "147",
		"ID": "54",
		"OrganizationName": "Geotechnics Ltd",
		"MemCat": "A",
		"Format": "1"
	}, {
		"MemberID": "295",
		"ID": "55",
		"OrganizationName": "gINT Software",
		"MemCat": "N",
		"Format": "1"
	}, {
		"MemberID": "315",
		"ID": "56",
		"OrganizationName": "Glover Site Investigations Ltd",
		"MemCat": "N",
		"Format": "1"
	}, {
		"MemberID": "358",
		"ID": "57",
		"OrganizationName": "Gold Ram Engineering & Development Ltd",
		"MemCat": "N",
		"Format": "1"
	}, {
		"MemberID": "472",
		"ID": "58",
		"OrganizationName": "Golder Associates",
		"MemCat": "A",
		"Format": "1"
	}, {
		"MemberID": "535",
		"ID": "59",
		"OrganizationName": "G-tec s.a",
		"MemCat": "N",
		"Format": "1"
	}, {
		"MemberID": "292",
		"ID": "60",
		"OrganizationName": "Halcrow Group Ltd",
		"MemCat": "A",
		"Format": "1"
	}, {
		"MemberID": "175",
		"ID": "61",
		"OrganizationName": "Halcrow Group Ltd",
		"MemCat": "A",
		"Format": "1"
	}, {
		"MemberID": "149",
		"ID": "62",
		"OrganizationName": "Harrison Group Environmental Ltd",
		"MemCat": "A",
		"Format": "1"
	}, {
		"MemberID": "276",
		"ID": "63",
		"OrganizationName": "Hugh Samuel",
		"MemCat": "P",
		"Format": "1"
	}, {
		"MemberID": "300",
		"ID": "64",
		"OrganizationName": "Integral Geotechniques (Wales) Ltd",
		"MemCat": "N",
		"Format": "1"
	}, {
		"MemberID": "357",
		"ID": "65",
		"OrganizationName": "Intrafor Hong Kong Limited",
		"MemCat": "N",
		"Format": "1"
	}, {
		"MemberID": "448",
		"ID": "66",
		"OrganizationName": "Jacobs Engineering UK Ltd",
		"MemCat": "A",
		"Format": "1"
	}, {
		"MemberID": "328",
		"ID": "67",
		"OrganizationName": "John Barnett & Associates",
		"MemCat": "N",
		"Format": "1"
	}, {
		"MemberID": "432",
		"ID": "68",
		"OrganizationName": "Johnson Poole & Bloomer Ltd",
		"MemCat": "B",
		"Format": "1"
	}, {
		"MemberID": "294",
		"ID": "69",
		"OrganizationName": "Jones & Wagener",
		"MemCat": "N",
		"Format": "1"
	}, {
		"MemberID": "522",
		"ID": "70",
		"OrganizationName": "Jones Environmental Laboratory",
		"MemCat": "N",
		"Format": "1"
	}, {
		"MemberID": "433",
		"ID": "71",
		"OrganizationName": "K4 Soils Laboratory",
		"MemCat": "N",
		"Format": "1"
	}, {
		"MemberID": "417",
		"ID": "72",
		"OrganizationName": "Kent Geotechnics",
		"MemCat": "N",
		"Format": "1"
	}, {
		"MemberID": "317",
		"ID": "73",
		"OrganizationName": "Keynetix Ltd",
		"MemCat": "C",
		"Format": "1"
	}, {
		"MemberID": "346",
		"ID": "74",
		"OrganizationName": "Klohn-Crippen",
		"MemCat": "N",
		"Format": "1"
	}, {
		"MemberID": "517",
		"ID": "75",
		"OrganizationName": "Langan Engineering & Environmental Services",
		"MemCat": "N",
		"Format": "1"
	}, {
		"MemberID": "462",
		"ID": "76",
		"OrganizationName": "Latrix Laboratory",
		"MemCat": "N",
		"Format": "1"
	}, {
		"MemberID": "197",
		"ID": "77",
		"OrganizationName": "LBH Wembley Geotechnical & Environmental",
		"MemCat": "A",
		"Format": "1"
	}, {
		"MemberID": "352",
		"ID": "78",
		"OrganizationName": "Leeke Associates",
		"MemCat": "N",
		"Format": "1"
	}, {
		"MemberID": "528",
		"ID": "79",
		"OrganizationName": "Marton Geotechnical Services",
		"MemCat": "N",
		"Format": "1"
	}, {
		"MemberID": "308",
		"ID": "80",
		"OrganizationName": "MateriaLab Ltd",
		"MemCat": "N",
		"Format": "1"
	}, {
		"MemberID": "481",
		"ID": "81",
		"OrganizationName": "MATtest Limited",
		"MemCat": "N",
		"Format": "1"
	}, {
		"MemberID": "476",
		"ID": "82",
		"OrganizationName": "MLM Environmental",
		"MemCat": "A",
		"Format": "1"
	}, {
		"MemberID": "355",
		"ID": "83",
		"OrganizationName": "Monitor-Pro Ltd",
		"MemCat": "N",
		"Format": "1"
	}, {
		"MemberID": "123",
		"ID": "84",
		"OrganizationName": "Morgan Sindall Professional Services Ltd",
		"MemCat": "A",
		"Format": "1"
	}, {
		"MemberID": "162",
		"ID": "85",
		"OrganizationName": "Mott MacDonald",
		"MemCat": "A",
		"Format": "1"
	}, {
		"MemberID": "209",
		"ID": "86",
		"OrganizationName": "Mouchel Ltd",
		"MemCat": "A",
		"Format": "1"
	}, {
		"MemberID": "418",
		"ID": "87",
		"OrganizationName": "MWH\r\nMWH",
		"MemCat": "N",
		"Format": "1"
	}, {
		"MemberID": "298",
		"ID": "88",
		"OrganizationName": "MZ Associates",
		"MemCat": "N",
		"Format": "1"
	}, {
		"MemberID": "243",
		"ID": "89",
		"OrganizationName": "Norfolk Partnership Laboratory",
		"MemCat": "C",
		"Format": "1"
	}, {
		"MemberID": "536",
		"ID": "90",
		"OrganizationName": "Panorama IT Consulting Inc",
		"MemCat": "N",
		"Format": "1"
	}, {
		"MemberID": "172",
		"ID": "91",
		"OrganizationName": "Parsons Brinckerhoff Ltd",
		"MemCat": "A",
		"Format": "1"
	}, {
		"MemberID": "168",
		"ID": "92",
		"OrganizationName": "Pell Frischmann",
		"MemCat": "A",
		"Format": "1"
	}, {
		"MemberID": "297",
		"ID": "93",
		"OrganizationName": "Portsmouth University",
		"MemCat": "N",
		"Format": "1"
	}, {
		"MemberID": "450",
		"ID": "94",
		"OrganizationName": "PTS International Ltd",
		"MemCat": "C",
		"Format": "1"
	}, {
		"MemberID": "296",
		"ID": "95",
		"OrganizationName": "Quantum Geotechnical Ltd",
		"MemCat": "N",
		"Format": "1"
	}, {
		"MemberID": "485",
		"ID": "96",
		"OrganizationName": "Reynolds Geo-Sciences Ltd",
		"MemCat": "N",
		"Format": "1"
	}, {
		"MemberID": "281",
		"ID": "97",
		"OrganizationName": "Royal Haskoning",
		"MemCat": "A",
		"Format": "1"
	}, {
		"MemberID": "381",
		"ID": "98",
		"OrganizationName": "RPS Planning Transport & Environment",
		"MemCat": "N",
		"Format": "1"
	}, {
		"MemberID": "382",
		"ID": "99",
		"OrganizationName": "Seacore Limited",
		"MemCat": "N",
		"Format": "1"
	}, {
		"MemberID": "452",
		"ID": "100",
		"OrganizationName": "Sevenoaks Environmental Consultancy Ltd",
		"MemCat": "C",
		"Format": "1"
	}, {
		"MemberID": "234",
		"ID": "101",
		"OrganizationName": "Severn Trent Services",
		"MemCat": "A",
		"Format": "1"
	}, {
		"MemberID": "164",
		"ID": "102",
		"OrganizationName": "Soil Engineering",
		"MemCat": "A",
		"Format": "1"
	}, {
		"MemberID": "213",
		"ID": "103",
		"OrganizationName": "Soil Mechanics Limited",
		"MemCat": "A",
		"Format": "1"
	}, {
		"MemberID": "178",
		"ID": "104",
		"OrganizationName": "Southern Testing Laboratories",
		"MemCat": "A",
		"Format": "1"
	}, {
		"MemberID": "435",
		"ID": "105",
		"OrganizationName": "Spea Ingegneria Europea spa",
		"MemCat": "N",
		"Format": "1"
	}, {
		"MemberID": "332",
		"ID": "106",
		"OrganizationName": "Stanger Asia Ltd",
		"MemCat": "N",
		"Format": "1"
	}, {
		"MemberID": "256",
		"ID": "107",
		"OrganizationName": "Structural Soils Ltd",
		"MemCat": "A",
		"Format": "1"
	}, {
		"MemberID": "491",
		"ID": "108",
		"OrganizationName": "Studio Geotechnico Italiano",
		"MemCat": "N",
		"Format": "1"
	}, {
		"MemberID": "502",
		"ID": "109",
		"OrganizationName": "TAGAsoft Engineering Software Ltd",
		"MemCat": "N",
		"Format": "1"
	}, {
		"MemberID": "440",
		"ID": "110",
		"OrganizationName": "Terra Tek Limited",
		"MemCat": "N",
		"Format": "1"
	}, {
		"MemberID": "453",
		"ID": "111",
		"OrganizationName": "TerraConsult Ltd",
		"MemCat": "N",
		"Format": "1"
	}, {
		"MemberID": "311",
		"ID": "112",
		"OrganizationName": "Terraform-FGS Ltd",
		"MemCat": "N",
		"Format": "1"
	}, {
		"MemberID": "390",
		"ID": "113",
		"OrganizationName": "The Environmental Company",
		"MemCat": "N",
		"Format": "1"
	}, {
		"MemberID": "331",
		"ID": "114",
		"OrganizationName": "Tree Technology Ltd",
		"MemCat": "N",
		"Format": "1"
	}, {
		"MemberID": "339",
		"ID": "115",
		"OrganizationName": "UKAEA",
		"MemCat": "N",
		"Format": "1"
	}, {
		"MemberID": "181",
		"ID": "116",
		"OrganizationName": "URS",
		"MemCat": "A",
		"Format": "1"
	}, {
		"MemberID": "340",
		"ID": "117",
		"OrganizationName": "Vibro (HK) Ltd",
		"MemCat": "N",
		"Format": "1"
	}, {
		"MemberID": "369",
		"ID": "118",
		"OrganizationName": "Wardell Armstrong",
		"MemCat": "N",
		"Format": "1"
	}, {
		"MemberID": "133",
		"ID": "119",
		"OrganizationName": "Weeks Technical Services plc",
		"MemCat": "A",
		"Format": "1"
	}, {
		"MemberID": "232",
		"ID": "120",
		"OrganizationName": "WSP Environmental",
		"MemCat": "A",
		"Format": "1"
	}, {
		"MemberID": "547",
		"ID": "121",
		"OrganizationName": "CMW Geosciences Pty Ltd",
		"MemCat": "N",
		"Format": "1"
	}, {
		"MemberID": "549",
		"ID": "122",
		"OrganizationName": "Edafos Engineering Consultants S.A",
		"MemCat": "N",
		"Format": "1"
	}, {
		"MemberID": "548",
		"ID": "123",
		"OrganizationName": "Plaxis BV",
		"MemCat": "N",
		"Format": "1"
	}, {
		"MemberID": "551",
		"ID": "124",
		"OrganizationName": "Saudi Labs Ltd",
		"MemCat": "N",
		"Format": "1"
	}, {
		"MemberID": "344",
		"ID": "125",
		"OrganizationName": "WYG Environment",
		"MemCat": "A",
		"Format": "-1"
	}, {
		"MemberID": "539",
		"ID": "126",
		"OrganizationName": "Topdrill Ltd",
		"MemCat": "N",
		"Format": "-1"
	}, {
		"MemberID": "556",
		"ID": "127",
		"OrganizationName": "Soil and Foundation Co Ltd",
		"MemCat": "N",
		"Format": "1"
	}, {
		"MemberID": null,
		"ID": "128",
		"OrganizationName": "QTS Environmental Ltd",
		"MemCat": "N",
		"Format": "1"
	}, {
		"MemberID": null,
		"ID": "129",
		"OrganizationName": "gINTDev",
		"MemCat": "N",
		"Format": "1"
	}, {
		"MemberID": null,
		"ID": "130",
		"OrganizationName": "AcQuire Technology Solutions Pty Ltd",
		"MemCat": "N",
		"Format": "1"
	}, {
		"MemberID": null,
		"ID": "131",
		"OrganizationName": "i2 Analytical Ltd",
		"MemCat": "N",
		"Format": "1"
	}, {
		"MemberID": null,
		"ID": "132",
		"OrganizationName": "Horizon Geosciences Limited",
		"MemCat": "N",
		"Format": "1"
	}, {
		"MemberID": "0",
		"ID": "133",
		"OrganizationName": "BAM Ritchies (a division of BAM Nuttall Ltd)",
		"MemCat": "N",
		"Format": "1"
	}, {
		"MemberID": null,
		"ID": "134",
		"OrganizationName": "Ian Farmer Associates (1998) Limited",
		"MemCat": "N",
		"Format": "1"
	}
]
