[{
		"ID": "1",
		"ABBR_HDNG": "GEOL_LEG",
		"ABBR_CODE": "007",
		"ABBR_DESC": "james bond soil",
		"New_Del": "New",
		"Revision_Date": "May 2010"
	}, {
		"ID": "2",
		"ABBR_HDNG": "BKFL_LEG",
		"ABBR_CODE": "901",
		"ABBR_DESC": "Sand backfill",
		"New_Del": "New",
		"Revision_Date": "Dec 2004"
	}, {
		"ID": "3",
		"ABBR_HDNG": "BKFL_LEG",
		"ABBR_CODE": "902",
		"ABBR_DESC": "Gravel backfill",
		"New_Del": "New",
		"Revision_Date": "Dec 2004"
	}, {
		"ID": "4",
		"ABBR_HDNG": "BKFL_LEG",
		"ABBR_CODE": "903",
		"ABBR_DESC": "Bentonite",
		"New_Del": "New",
		"Revision_Date": "Dec 2004"
	}, {
		"ID": "5",
		"ABBR_HDNG": "BKFL_LEG",
		"ABBR_CODE": "904",
		"ABBR_DESC": "Grout",
		"New_Del": "New",
		"Revision_Date": "Dec 2004"
	}, {
		"ID": "6",
		"ABBR_HDNG": "BKFL_LEG",
		"ABBR_CODE": "905",
		"ABBR_DESC": "Arisings",
		"New_Del": "New",
		"Revision_Date": "Dec 2004"
	}, {
		"ID": "7",
		"ABBR_HDNG": "BKFL_LEG",
		"ABBR_CODE": "906",
		"ABBR_DESC": "Concrete",
		"New_Del": "New",
		"Revision_Date": "Dec 2004"
	}, {
		"ID": "8",
		"ABBR_HDNG": "CNMT_TTYP",
		"ABBR_CODE": "GAS",
		"ABBR_DESC": "Gas",
		"New_Del": "",
		"Revision_Date": "Nov 1999"
	}, {
		"ID": "9",
		"ABBR_HDNG": "CNMT_TTYP",
		"ABBR_CODE": "LIQUID",
		"ABBR_DESC": "Liquid",
		"New_Del": "",
		"Revision_Date": "Nov 1999"
	}, {
		"ID": "10",
		"ABBR_HDNG": "CNMT_TTYP",
		"ABBR_CODE": "SOLID",
		"ABBR_DESC": "Solid",
		"New_Del": "",
		"Revision_Date": "Nov 1999"
	}, {
		"ID": "11",
		"ABBR_HDNG": "CNMT_TTYP",
		"ABBR_CODE": "SOLID_11WAT",
		"ABBR_DESC": "Solid (1:1 Soil\/Water extract)",
		"New_Del": "New",
		"Revision_Date": "Dec 2004"
	}, {
		"ID": "12",
		"ABBR_HDNG": "CNMT_TTYP",
		"ABBR_CODE": "SOLID_21WAT",
		"ABBR_DESC": "Solid (2:1 Soil\/Water extract)",
		"New_Del": "",
		"Revision_Date": "Nov 1999"
	}, {
		"ID": "13",
		"ABBR_HDNG": "CNMT_TTYP",
		"ABBR_CODE": "SOLID_ACID",
		"ABBR_DESC": "Solid (Acid extract)",
		"New_Del": "",
		"Revision_Date": "Nov 1999"
	}, {
		"ID": "14",
		"ABBR_HDNG": "CNMT_TTYP",
		"ABBR_CODE": "SOLID_AVAIL",
		"ABBR_DESC": "Solid (Available)",
		"New_Del": "",
		"Revision_Date": "Nov 1999"
	}, {
		"ID": "15",
		"ABBR_HDNG": "CNMT_TTYP",
		"ABBR_CODE": "SOLID_DRY",
		"ABBR_DESC": "Solid (Dry weight)",
		"New_Del": "",
		"Revision_Date": "Nov 1999"
	}, {
		"ID": "16",
		"ABBR_HDNG": "CNMT_TTYP",
		"ABBR_CODE": "SOLID_EDTA",
		"ABBR_DESC": "Solid (EDTA extract)",
		"New_Del": "",
		"Revision_Date": "Nov 1999"
	}, {
		"ID": "17",
		"ABBR_HDNG": "CNMT_TTYP",
		"ABBR_CODE": "SOLID_FREE",
		"ABBR_DESC": "Solid (Free)",
		"New_Del": "",
		"Revision_Date": "Nov 1999"
	}, {
		"ID": "18",
		"ABBR_HDNG": "CNMT_TTYP",
		"ABBR_CODE": "SOLID_PRES",
		"ABBR_DESC": "Solid (Presence of)",
		"New_Del": "",
		"Revision_Date": "Nov 1999"
	}, {
		"ID": "19",
		"ABBR_HDNG": "CNMT_TTYP",
		"ABBR_CODE": "SOLID_TOT",
		"ABBR_DESC": "Solid(Total)",
		"New_Del": "",
		"Revision_Date": "Nov 1999"
	}, {
		"ID": "20",
		"ABBR_HDNG": "CNMT_TTYP",
		"ABBR_CODE": "SOLID_WAT",
		"ABBR_DESC": "Solid (Water extract)",
		"New_Del": "",
		"Revision_Date": "Nov 1999"
	}, {
		"ID": "21",
		"ABBR_HDNG": "CNMT_TTYP",
		"ABBR_CODE": "WATER",
		"ABBR_DESC": "Water",
		"New_Del": "",
		"Revision_Date": "Nov 1999"
	}, {
		"ID": "22",
		"ABBR_HDNG": "CNMT_TTYP",
		"ABBR_CODE": "WATER_ACIDHY",
		"ABBR_DESC": "Water (Acid hydrolysable)",
		"New_Del": "",
		"Revision_Date": "Nov 1999"
	}, {
		"ID": "23",
		"ABBR_HDNG": "CNMT_TTYP",
		"ABBR_CODE": "WATER_DISS",
		"ABBR_DESC": "Water (Dissolved)",
		"New_Del": "",
		"Revision_Date": "Nov 1999"
	}, {
		"ID": "24",
		"ABBR_HDNG": "CNMT_TTYP",
		"ABBR_CODE": "WATER_ELEM",
		"ABBR_DESC": "Water(Elemental)",
		"New_Del": "",
		"Revision_Date": "Nov 1999"
	}, {
		"ID": "25",
		"ABBR_HDNG": "CNMT_TTYP",
		"ABBR_CODE": "WATER_FREE",
		"ABBR_DESC": "Water (Free)",
		"New_Del": "",
		"Revision_Date": "Nov 1999"
	}, {
		"ID": "26",
		"ABBR_HDNG": "CNMT_TTYP",
		"ABBR_CODE": "WATER_ORG",
		"ABBR_DESC": "Water (Organic)",
		"New_Del": "",
		"Revision_Date": "Nov 1999"
	}, {
		"ID": "27",
		"ABBR_HDNG": "CNMT_TTYP",
		"ABBR_CODE": "WATER_PRES",
		"ABBR_DESC": "Water (Presence of)",
		"New_Del": "",
		"Revision_Date": "Nov 1999"
	}, {
		"ID": "28",
		"ABBR_HDNG": "CNMT_TTYP",
		"ABBR_CODE": "WATER_SOLRE",
		"ABBR_DESC": "Water (Soluble reactive)",
		"New_Del": "",
		"Revision_Date": "Nov 1999"
	}, {
		"ID": "29",
		"ABBR_HDNG": "CNMT_TTYP",
		"ABBR_CODE": "WATER_TOT",
		"ABBR_DESC": "Water (Total)",
		"New_Del": "",
		"Revision_Date": "Nov 1999"
	}, {
		"ID": "30",
		"ABBR_HDNG": "CNMT_TTYP",
		"ABBR_CODE": "LEACHATE",
		"ABBR_DESC": "Leachate",
		"New_Del": "",
		"Revision_Date": "Nov 1999"
	}, {
		"ID": "31",
		"ABBR_HDNG": "CNMT_TTYP",
		"ABBR_CODE": "LEACHATE_TOT",
		"ABBR_DESC": "Leachate (Total)",
		"New_Del": "",
		"Revision_Date": "Nov 1999"
	}, {
		"ID": "32",
		"ABBR_HDNG": "CNMT_TTYP",
		"ABBR_CODE": "LEACHATE_FREE",
		"ABBR_DESC": "Leachate (Free)",
		"New_Del": "",
		"Revision_Date": "Nov 1999"
	}, {
		"ID": "33",
		"ABBR_HDNG": "CNMT_TTYP",
		"ABBR_CODE": "LEACHATE_DISS",
		"ABBR_DESC": "Leachate (Dissolved)",
		"New_Del": "New",
		"Revision_Date": "Dec 2004"
	}, {
		"ID": "34",
		"ABBR_HDNG": "DISC_TERM",
		"ABBR_CODE": "D",
		"ABBR_DESC": "Terminates against another discontinuity",
		"New_Del": "",
		"Revision_Date": "Nov 1999"
	}, {
		"ID": "35",
		"ABBR_HDNG": "DISC_TERM",
		"ABBR_CODE": "R",
		"ABBR_DESC": "Terminates within rock",
		"New_Del": "",
		"Revision_Date": "Nov 1999"
	}, {
		"ID": "36",
		"ABBR_HDNG": "DISC_TERM",
		"ABBR_CODE": "X",
		"ABBR_DESC": "Extends beyond exposure",
		"New_Del": "",
		"Revision_Date": "Nov 1999"
	}, {
		"ID": "37",
		"ABBR_HDNG": "FILE_DOCT",
		"ABBR_CODE": "CR",
		"ABBR_DESC": "Construction record",
		"New_Del": "New",
		"Revision_Date": "Mar 2002"
	}, {
		"ID": "38",
		"ABBR_HDNG": "FILE_DOCT",
		"ABBR_CODE": "GEN",
		"ABBR_DESC": "General",
		"New_Del": "New",
		"Revision_Date": "Mar 2002"
	}, {
		"ID": "39",
		"ABBR_HDNG": "FILE_DOCT",
		"ABBR_CODE": "MS",
		"ABBR_DESC": "Method statement",
		"New_Del": "New",
		"Revision_Date": "Mar 2002"
	}, {
		"ID": "40",
		"ABBR_HDNG": "FILE_DOCT",
		"ABBR_CODE": "TECH",
		"ABBR_DESC": "Technical paper",
		"New_Del": "New",
		"Revision_Date": "Mar 2002"
	}, {
		"ID": "41",
		"ABBR_HDNG": "FILE_DOCT",
		"ABBR_CODE": "PH",
		"ABBR_DESC": "Photograph",
		"New_Del": "New",
		"Revision_Date": "Mar 2002"
	}, {
		"ID": "42",
		"ABBR_HDNG": "FILE_DOCT",
		"ABBR_CODE": "REP",
		"ABBR_DESC": "Report",
		"New_Del": "New",
		"Revision_Date": "Mar 2002"
	}, {
		"ID": "43",
		"ABBR_HDNG": "FILE_DOCT",
		"ABBR_CODE": "VI",
		"ABBR_DESC": "Video clip",
		"New_Del": "New",
		"Revision_Date": "Mar 2002"
	}, {
		"ID": "44",
		"ABBR_HDNG": "FILE_DOCT",
		"ABBR_CODE": "DRAW",
		"ABBR_DESC": "Drawing",
		"New_Del": "New",
		"Revision_Date": "Mar 2002"
	}, {
		"ID": "45",
		"ABBR_HDNG": "FILE_DOCT",
		"ABBR_CODE": "CAL",
		"ABBR_DESC": "Calibration data",
		"New_Del": "New",
		"Revision_Date": "Mar 2002"
	}, {
		"ID": "46",
		"ABBR_HDNG": "FILE_DOCT",
		"ABBR_CODE": "RAW",
		"ABBR_DESC": "Raw data",
		"New_Del": "New",
		"Revision_Date": "Mar 2002"
	}, {
		"ID": "47",
		"ABBR_HDNG": "GEOL_LEG",
		"ABBR_CODE": "101",
		"ABBR_DESC": "TOPSOIL",
		"New_Del": "New",
		"Revision_Date": "Dec 2004"
	}, {
		"ID": "48",
		"ABBR_HDNG": "GEOL_LEG",
		"ABBR_CODE": "102",
		"ABBR_DESC": "MADE GROUND",
		"New_Del": "New",
		"Revision_Date": "Dec 2004"
	}, {
		"ID": "49",
		"ABBR_HDNG": "GEOL_LEG",
		"ABBR_CODE": "104",
		"ABBR_DESC": "CONCRETE",
		"New_Del": "New",
		"Revision_Date": "Dec 2004"
	}, {
		"ID": "50",
		"ABBR_HDNG": "GEOL_LEG",
		"ABBR_CODE": "201",
		"ABBR_DESC": "CLAY",
		"New_Del": "New",
		"Revision_Date": "Dec 2004"
	}, {
		"ID": "51",
		"ABBR_HDNG": "GEOL_LEG",
		"ABBR_CODE": "202",
		"ABBR_DESC": "Silty CLAY",
		"New_Del": "New",
		"Revision_Date": "Dec 2004"
	}, {
		"ID": "52",
		"ABBR_HDNG": "GEOL_LEG",
		"ABBR_CODE": "203",
		"ABBR_DESC": "Sandy CLAY",
		"New_Del": "New",
		"Revision_Date": "Dec 2004"
	}, {
		"ID": "53",
		"ABBR_HDNG": "GEOL_LEG",
		"ABBR_CODE": "204",
		"ABBR_DESC": "Gravelly CLAY",
		"New_Del": "New",
		"Revision_Date": "Dec 2004"
	}, {
		"ID": "54",
		"ABBR_HDNG": "GEOL_LEG",
		"ABBR_CODE": "205",
		"ABBR_DESC": "Cobbly CLAY",
		"New_Del": "New",
		"Revision_Date": "Dec 2004"
	}, {
		"ID": "55",
		"ABBR_HDNG": "GEOL_LEG",
		"ABBR_CODE": "206",
		"ABBR_DESC": "Bouldery CLAY",
		"New_Del": "New",
		"Revision_Date": "Dec 2004"
	}, {
		"ID": "56",
		"ABBR_HDNG": "GEOL_LEG",
		"ABBR_CODE": "207",
		"ABBR_DESC": "Silty sandy CLAY",
		"New_Del": "New",
		"Revision_Date": "Dec 2004"
	}, {
		"ID": "57",
		"ABBR_HDNG": "GEOL_LEG",
		"ABBR_CODE": "208",
		"ABBR_DESC": "Silty gravelly CLAY",
		"New_Del": "New",
		"Revision_Date": "Dec 2004"
	}, {
		"ID": "58",
		"ABBR_HDNG": "GEOL_LEG",
		"ABBR_CODE": "209",
		"ABBR_DESC": "Silty cobbly CLAY",
		"New_Del": "New",
		"Revision_Date": "Dec 2004"
	}, {
		"ID": "59",
		"ABBR_HDNG": "GEOL_LEG",
		"ABBR_CODE": "210",
		"ABBR_DESC": "Silty bouldery CLAY",
		"New_Del": "New",
		"Revision_Date": "Dec 2004"
	}, {
		"ID": "60",
		"ABBR_HDNG": "GEOL_LEG",
		"ABBR_CODE": "211",
		"ABBR_DESC": "Silty sandy gravelly CLAY",
		"New_Del": "New",
		"Revision_Date": "Dec 2004"
	}, {
		"ID": "61",
		"ABBR_HDNG": "GEOL_LEG",
		"ABBR_CODE": "212",
		"ABBR_DESC": "Silty sandy cobbly CLAY",
		"New_Del": "New",
		"Revision_Date": "Dec 2004"
	}, {
		"ID": "62",
		"ABBR_HDNG": "GEOL_LEG",
		"ABBR_CODE": "213",
		"ABBR_DESC": "Silty sandy bouldery CLAY",
		"New_Del": "New",
		"Revision_Date": "Dec 2004"
	}, {
		"ID": "63",
		"ABBR_HDNG": "GEOL_LEG",
		"ABBR_CODE": "214",
		"ABBR_DESC": "Silty sandy gravelly cobbly CLAY",
		"New_Del": "New",
		"Revision_Date": "Dec 2004"
	}, {
		"ID": "64",
		"ABBR_HDNG": "GEOL_LEG",
		"ABBR_CODE": "215",
		"ABBR_DESC": "Silty sandy gravelly bouldery CLAY",
		"New_Del": "New",
		"Revision_Date": "Dec 2004"
	}, {
		"ID": "65",
		"ABBR_HDNG": "GEOL_LEG",
		"ABBR_CODE": "216",
		"ABBR_DESC": "Silty sandy gravelly cobbly bouldery CLAY",
		"New_Del": "New",
		"Revision_Date": "Dec 2004"
	}, {
		"ID": "66",
		"ABBR_HDNG": "GEOL_LEG",
		"ABBR_CODE": "217",
		"ABBR_DESC": "Silty sandy organic CLAY",
		"New_Del": "New",
		"Revision_Date": "Dec 2004"
	}, {
		"ID": "67",
		"ABBR_HDNG": "GEOL_LEG",
		"ABBR_CODE": "218",
		"ABBR_DESC": "Silty sandy gravelly organic CLAY",
		"New_Del": "New",
		"Revision_Date": "Dec 2004"
	}, {
		"ID": "68",
		"ABBR_HDNG": "GEOL_LEG",
		"ABBR_CODE": "219",
		"ABBR_DESC": "Silty organic CLAY",
		"New_Del": "New",
		"Revision_Date": "Dec 2004"
	}, {
		"ID": "69",
		"ABBR_HDNG": "GEOL_LEG",
		"ABBR_CODE": "220",
		"ABBR_DESC": "Sandy gravelly CLAY",
		"New_Del": "New",
		"Revision_Date": "Dec 2004"
	}, {
		"ID": "70",
		"ABBR_HDNG": "GEOL_LEG",
		"ABBR_CODE": "222",
		"ABBR_DESC": "Sandy cobbly CLAY",
		"New_Del": "New",
		"Revision_Date": "Dec 2004"
	}, {
		"ID": "71",
		"ABBR_HDNG": "GEOL_LEG",
		"ABBR_CODE": "223",
		"ABBR_DESC": "Sandy bouldery CLAY",
		"New_Del": "New",
		"Revision_Date": "Dec 2004"
	}, {
		"ID": "72",
		"ABBR_HDNG": "GEOL_LEG",
		"ABBR_CODE": "224",
		"ABBR_DESC": "Sandy gravelly cobbly CLAY",
		"New_Del": "New",
		"Revision_Date": "Dec 2004"
	}, {
		"ID": "73",
		"ABBR_HDNG": "GEOL_LEG",
		"ABBR_CODE": "225",
		"ABBR_DESC": "Sandy gravelly bouldery CLAY",
		"New_Del": "New",
		"Revision_Date": "Dec 2004"
	}, {
		"ID": "74",
		"ABBR_HDNG": "GEOL_LEG",
		"ABBR_CODE": "226",
		"ABBR_DESC": "Sandy gravelly cobbly bouldery CLAY",
		"New_Del": "New",
		"Revision_Date": "Dec 2004"
	}, {
		"ID": "75",
		"ABBR_HDNG": "GEOL_LEG",
		"ABBR_CODE": "227",
		"ABBR_DESC": "Sandy organic CLAY",
		"New_Del": "New",
		"Revision_Date": "Dec 2004"
	}, {
		"ID": "76",
		"ABBR_HDNG": "GEOL_LEG",
		"ABBR_CODE": "228",
		"ABBR_DESC": "Sandy gravelly organic CLAY",
		"New_Del": "New",
		"Revision_Date": "Dec 2004"
	}, {
		"ID": "77",
		"ABBR_HDNG": "GEOL_LEG",
		"ABBR_CODE": "229",
		"ABBR_DESC": "Organic CLAY",
		"New_Del": "New",
		"Revision_Date": "Dec 2004"
	}, {
		"ID": "78",
		"ABBR_HDNG": "GEOL_LEG",
		"ABBR_CODE": "301",
		"ABBR_DESC": "SILT",
		"New_Del": "New",
		"Revision_Date": "Dec 2004"
	}, {
		"ID": "79",
		"ABBR_HDNG": "GEOL_LEG",
		"ABBR_CODE": "302",
		"ABBR_DESC": "Clay\/Silt",
		"New_Del": "New",
		"Revision_Date": "Dec 2004"
	}, {
		"ID": "80",
		"ABBR_HDNG": "GEOL_LEG",
		"ABBR_CODE": "303",
		"ABBR_DESC": "Sandy SILT",
		"New_Del": "New",
		"Revision_Date": "Dec 2004"
	}, {
		"ID": "81",
		"ABBR_HDNG": "GEOL_LEG",
		"ABBR_CODE": "304",
		"ABBR_DESC": "Gravelly SILT",
		"New_Del": "New",
		"Revision_Date": "Dec 2004"
	}, {
		"ID": "82",
		"ABBR_HDNG": "GEOL_LEG",
		"ABBR_CODE": "305",
		"ABBR_DESC": "Organic SILT",
		"New_Del": "New",
		"Revision_Date": "Dec 2004"
	}, {
		"ID": "83",
		"ABBR_HDNG": "GEOL_LEG",
		"ABBR_CODE": "310",
		"ABBR_DESC": "Sandy gravelly SILT",
		"New_Del": "New",
		"Revision_Date": "Dec 2004"
	}, {
		"ID": "84",
		"ABBR_HDNG": "GEOL_LEG",
		"ABBR_CODE": "314",
		"ABBR_DESC": "Clayey sandy gravelly organic cobbly SILT",
		"New_Del": "New",
		"Revision_Date": "Dec 2004"
	}, {
		"ID": "85",
		"ABBR_HDNG": "GEOL_LEG",
		"ABBR_CODE": "316",
		"ABBR_DESC": "Sandy cobbly SILT",
		"New_Del": "New",
		"Revision_Date": "Dec 2004"
	}, {
		"ID": "86",
		"ABBR_HDNG": "GEOL_LEG",
		"ABBR_CODE": "317",
		"ABBR_DESC": "Sandy bouldery SILT",
		"New_Del": "New",
		"Revision_Date": "Dec 2004"
	}, {
		"ID": "87",
		"ABBR_HDNG": "GEOL_LEG",
		"ABBR_CODE": "318",
		"ABBR_DESC": "Sandy organic SILT",
		"New_Del": "New",
		"Revision_Date": "Dec 2004"
	}, {
		"ID": "88",
		"ABBR_HDNG": "GEOL_LEG",
		"ABBR_CODE": "319",
		"ABBR_DESC": "Sandy gravelly organic SILT",
		"New_Del": "New",
		"Revision_Date": "Dec 2004"
	}, {
		"ID": "89",
		"ABBR_HDNG": "GEOL_LEG",
		"ABBR_CODE": "320",
		"ABBR_DESC": "Sandy gravelly cobbly SILT",
		"New_Del": "New",
		"Revision_Date": "Dec 2004"
	}, {
		"ID": "90",
		"ABBR_HDNG": "GEOL_LEG",
		"ABBR_CODE": "321",
		"ABBR_DESC": "Sandy gravelly organic cobbly SILT",
		"New_Del": "New",
		"Revision_Date": "Dec 2004"
	}, {
		"ID": "91",
		"ABBR_HDNG": "GEOL_LEG",
		"ABBR_CODE": "322",
		"ABBR_DESC": "Gravelly cobbly SILT",
		"New_Del": "New",
		"Revision_Date": "Dec 2004"
	}, {
		"ID": "92",
		"ABBR_HDNG": "GEOL_LEG",
		"ABBR_CODE": "323",
		"ABBR_DESC": "Gravelly bouldery SILT",
		"New_Del": "New",
		"Revision_Date": "Dec 2004"
	}, {
		"ID": "93",
		"ABBR_HDNG": "GEOL_LEG",
		"ABBR_CODE": "324",
		"ABBR_DESC": "Gravelly organic SILT",
		"New_Del": "New",
		"Revision_Date": "Dec 2004"
	}, {
		"ID": "94",
		"ABBR_HDNG": "GEOL_LEG",
		"ABBR_CODE": "325",
		"ABBR_DESC": "Gravelly organic cobbly SILT",
		"New_Del": "New",
		"Revision_Date": "Dec 2004"
	}, {
		"ID": "95",
		"ABBR_HDNG": "GEOL_LEG",
		"ABBR_CODE": "326",
		"ABBR_DESC": "Cobbly SILT",
		"New_Del": "New",
		"Revision_Date": "Dec 2004"
	}, {
		"ID": "96",
		"ABBR_HDNG": "GEOL_LEG",
		"ABBR_CODE": "327",
		"ABBR_DESC": "Cobbly bouldery SILT",
		"New_Del": "New",
		"Revision_Date": "Dec 2004"
	}, {
		"ID": "97",
		"ABBR_HDNG": "GEOL_LEG",
		"ABBR_CODE": "328",
		"ABBR_DESC": "Organic cobbly SILT",
		"New_Del": "New",
		"Revision_Date": "Dec 2004"
	}, {
		"ID": "98",
		"ABBR_HDNG": "GEOL_LEG",
		"ABBR_CODE": "331",
		"ABBR_DESC": "Bouldery SILT",
		"New_Del": "New",
		"Revision_Date": "Dec 2004"
	}, {
		"ID": "99",
		"ABBR_HDNG": "GEOL_LEG",
		"ABBR_CODE": "401",
		"ABBR_DESC": "SAND",
		"New_Del": "New",
		"Revision_Date": "Dec 2004"
	}, {
		"ID": "100",
		"ABBR_HDNG": "GEOL_LEG",
		"ABBR_CODE": "402",
		"ABBR_DESC": "Clayey SAND",
		"New_Del": "New",
		"Revision_Date": "Dec 2004"
	}, {
		"ID": "101",
		"ABBR_HDNG": "GEOL_LEG",
		"ABBR_CODE": "403",
		"ABBR_DESC": "Silty SAND",
		"New_Del": "New",
		"Revision_Date": "Dec 2004"
	}, {
		"ID": "102",
		"ABBR_HDNG": "GEOL_LEG",
		"ABBR_CODE": "404",
		"ABBR_DESC": "Gravelly SAND",
		"New_Del": "New",
		"Revision_Date": "Dec 2004"
	}, {
		"ID": "103",
		"ABBR_HDNG": "GEOL_LEG",
		"ABBR_CODE": "405",
		"ABBR_DESC": "Cobbly SAND",
		"New_Del": "New",
		"Revision_Date": "Dec 2004"
	}, {
		"ID": "104",
		"ABBR_HDNG": "GEOL_LEG",
		"ABBR_CODE": "406",
		"ABBR_DESC": "Bouldery SAND",
		"New_Del": "New",
		"Revision_Date": "Dec 2004"
	}, {
		"ID": "105",
		"ABBR_HDNG": "GEOL_LEG",
		"ABBR_CODE": "410",
		"ABBR_DESC": "Clayey gravelly SAND",
		"New_Del": "New",
		"Revision_Date": "Dec 2004"
	}, {
		"ID": "106",
		"ABBR_HDNG": "GEOL_LEG",
		"ABBR_CODE": "411",
		"ABBR_DESC": "Clayey gravelly cobbly SAND",
		"New_Del": "New",
		"Revision_Date": "Dec 2004"
	}, {
		"ID": "107",
		"ABBR_HDNG": "GEOL_LEG",
		"ABBR_CODE": "412",
		"ABBR_DESC": "Silty gravelly SAND",
		"New_Del": "New",
		"Revision_Date": "Dec 2004"
	}, {
		"ID": "108",
		"ABBR_HDNG": "GEOL_LEG",
		"ABBR_CODE": "413",
		"ABBR_DESC": "Silty gravelly cobbly SAND",
		"New_Del": "New",
		"Revision_Date": "Dec 2004"
	}, {
		"ID": "109",
		"ABBR_HDNG": "GEOL_LEG",
		"ABBR_CODE": "414",
		"ABBR_DESC": "Silty gravelly cobbly bouldery SAND",
		"New_Del": "New",
		"Revision_Date": "Dec 2004"
	}, {
		"ID": "110",
		"ABBR_HDNG": "GEOL_LEG",
		"ABBR_CODE": "415",
		"ABBR_DESC": "Gravelly cobbly SAND",
		"New_Del": "New",
		"Revision_Date": "Dec 2004"
	}, {
		"ID": "111",
		"ABBR_HDNG": "GEOL_LEG",
		"ABBR_CODE": "416",
		"ABBR_DESC": "Gravelly cobbly bouldery SAND",
		"New_Del": "New",
		"Revision_Date": "Dec 2004"
	}, {
		"ID": "112",
		"ABBR_HDNG": "GEOL_LEG",
		"ABBR_CODE": "417",
		"ABBR_DESC": "Gravelly bouldery SAND",
		"New_Del": "New",
		"Revision_Date": "Dec 2004"
	}, {
		"ID": "113",
		"ABBR_HDNG": "GEOL_LEG",
		"ABBR_CODE": "418",
		"ABBR_DESC": "Cobbly bouldery SAND",
		"New_Del": "New",
		"Revision_Date": "Dec 2004"
	}, {
		"ID": "114",
		"ABBR_HDNG": "GEOL_LEG",
		"ABBR_CODE": "430",
		"ABBR_DESC": "SAND and GRAVEL",
		"New_Del": "New",
		"Revision_Date": "Dec 2004"
	}, {
		"ID": "115",
		"ABBR_HDNG": "GEOL_LEG",
		"ABBR_CODE": "431",
		"ABBR_DESC": "Organic SAND",
		"New_Del": "New",
		"Revision_Date": "Dec 2004"
	}, {
		"ID": "116",
		"ABBR_HDNG": "GEOL_LEG",
		"ABBR_CODE": "433",
		"ABBR_DESC": "Silty organic SAND",
		"New_Del": "New",
		"Revision_Date": "Dec 2004"
	}, {
		"ID": "117",
		"ABBR_HDNG": "GEOL_LEG",
		"ABBR_CODE": "434",
		"ABBR_DESC": "Gravelly organic SAND",
		"New_Del": "New",
		"Revision_Date": "Dec 2004"
	}, {
		"ID": "118",
		"ABBR_HDNG": "GEOL_LEG",
		"ABBR_CODE": "435",
		"ABBR_DESC": "Cobbly organic SAND",
		"New_Del": "New",
		"Revision_Date": "Dec 2004"
	}, {
		"ID": "119",
		"ABBR_HDNG": "GEOL_LEG",
		"ABBR_CODE": "436",
		"ABBR_DESC": "Bouldery organic SAND",
		"New_Del": "New",
		"Revision_Date": "Dec 2004"
	}, {
		"ID": "120",
		"ABBR_HDNG": "GEOL_LEG",
		"ABBR_CODE": "501",
		"ABBR_DESC": "GRAVEL",
		"New_Del": "New",
		"Revision_Date": "Dec 2004"
	}, {
		"ID": "121",
		"ABBR_HDNG": "GEOL_LEG",
		"ABBR_CODE": "502",
		"ABBR_DESC": "Clayey GRAVEL",
		"New_Del": "New",
		"Revision_Date": "Dec 2004"
	}, {
		"ID": "122",
		"ABBR_HDNG": "GEOL_LEG",
		"ABBR_CODE": "503",
		"ABBR_DESC": "Silty GRAVEL",
		"New_Del": "New",
		"Revision_Date": "Dec 2004"
	}, {
		"ID": "123",
		"ABBR_HDNG": "GEOL_LEG",
		"ABBR_CODE": "504",
		"ABBR_DESC": "Sandy GRAVEL",
		"New_Del": "New",
		"Revision_Date": "Dec 2004"
	}, {
		"ID": "124",
		"ABBR_HDNG": "GEOL_LEG",
		"ABBR_CODE": "505",
		"ABBR_DESC": "Organic GRAVEL",
		"New_Del": "New",
		"Revision_Date": "Dec 2004"
	}, {
		"ID": "125",
		"ABBR_HDNG": "GEOL_LEG",
		"ABBR_CODE": "506",
		"ABBR_DESC": "Cobbly GRAVEL",
		"New_Del": "New",
		"Revision_Date": "Dec 2004"
	}, {
		"ID": "126",
		"ABBR_HDNG": "GEOL_LEG",
		"ABBR_CODE": "507",
		"ABBR_DESC": "Bouldery GRAVEL",
		"New_Del": "New",
		"Revision_Date": "Dec 2004"
	}, {
		"ID": "127",
		"ABBR_HDNG": "GEOL_LEG",
		"ABBR_CODE": "509",
		"ABBR_DESC": "Clayey sandy GRAVEL",
		"New_Del": "New",
		"Revision_Date": "Dec 2004"
	}, {
		"ID": "128",
		"ABBR_HDNG": "GEOL_LEG",
		"ABBR_CODE": "510",
		"ABBR_DESC": "Clayey cobbly GRAVEL",
		"New_Del": "New",
		"Revision_Date": "Dec 2004"
	}, {
		"ID": "129",
		"ABBR_HDNG": "GEOL_LEG",
		"ABBR_CODE": "511",
		"ABBR_DESC": "Clayey bouldery GRAVEL",
		"New_Del": "New",
		"Revision_Date": "Dec 2004"
	}, {
		"ID": "130",
		"ABBR_HDNG": "GEOL_LEG",
		"ABBR_CODE": "512",
		"ABBR_DESC": "Clayey organic GRAVEL",
		"New_Del": "New",
		"Revision_Date": "Dec 2004"
	}, {
		"ID": "131",
		"ABBR_HDNG": "GEOL_LEG",
		"ABBR_CODE": "517",
		"ABBR_DESC": "Clayey sandy organic GRAVEL",
		"New_Del": "New",
		"Revision_Date": "Dec 2004"
	}, {
		"ID": "132",
		"ABBR_HDNG": "GEOL_LEG",
		"ABBR_CODE": "520",
		"ABBR_DESC": "Silty sandy GRAVEL",
		"New_Del": "New",
		"Revision_Date": "Dec 2004"
	}, {
		"ID": "133",
		"ABBR_HDNG": "GEOL_LEG",
		"ABBR_CODE": "521",
		"ABBR_DESC": "Silty cobbly GRAVEL",
		"New_Del": "New",
		"Revision_Date": "Dec 2004"
	}, {
		"ID": "134",
		"ABBR_HDNG": "GEOL_LEG",
		"ABBR_CODE": "522",
		"ABBR_DESC": "Silty bouldery GRAVEL",
		"New_Del": "New",
		"Revision_Date": "Dec 2004"
	}, {
		"ID": "135",
		"ABBR_HDNG": "GEOL_LEG",
		"ABBR_CODE": "523",
		"ABBR_DESC": "Silty organic GRAVEL",
		"New_Del": "New",
		"Revision_Date": "Dec 2004"
	}, {
		"ID": "136",
		"ABBR_HDNG": "GEOL_LEG",
		"ABBR_CODE": "524",
		"ABBR_DESC": "Silty organic sandy GRAVEL",
		"New_Del": "New",
		"Revision_Date": "Dec 2004"
	}, {
		"ID": "137",
		"ABBR_HDNG": "GEOL_LEG",
		"ABBR_CODE": "525",
		"ABBR_DESC": "Sandy cobbly GRAVEL",
		"New_Del": "New",
		"Revision_Date": "Dec 2004"
	}, {
		"ID": "138",
		"ABBR_HDNG": "GEOL_LEG",
		"ABBR_CODE": "526",
		"ABBR_DESC": "Sandy bouldery GRAVEL",
		"New_Del": "New",
		"Revision_Date": "Dec 2004"
	}, {
		"ID": "139",
		"ABBR_HDNG": "GEOL_LEG",
		"ABBR_CODE": "527",
		"ABBR_DESC": "Sandy organic GRAVEL",
		"New_Del": "New",
		"Revision_Date": "Dec 2004"
	}, {
		"ID": "140",
		"ABBR_HDNG": "GEOL_LEG",
		"ABBR_CODE": "528",
		"ABBR_DESC": "Silty sandy cobbly GRAVEL",
		"New_Del": "New",
		"Revision_Date": "Dec 2004"
	}, {
		"ID": "141",
		"ABBR_HDNG": "GEOL_LEG",
		"ABBR_CODE": "601",
		"ABBR_DESC": "PEAT",
		"New_Del": "New",
		"Revision_Date": "Dec 2004"
	}, {
		"ID": "142",
		"ABBR_HDNG": "GEOL_LEG",
		"ABBR_CODE": "602",
		"ABBR_DESC": "Clayey PEAT",
		"New_Del": "New",
		"Revision_Date": "Dec 2004"
	}, {
		"ID": "143",
		"ABBR_HDNG": "GEOL_LEG",
		"ABBR_CODE": "603",
		"ABBR_DESC": "Silty PEAT",
		"New_Del": "New",
		"Revision_Date": "Dec 2004"
	}, {
		"ID": "144",
		"ABBR_HDNG": "GEOL_LEG",
		"ABBR_CODE": "604",
		"ABBR_DESC": "Sandy PEAT",
		"New_Del": "New",
		"Revision_Date": "Dec 2004"
	}, {
		"ID": "145",
		"ABBR_HDNG": "GEOL_LEG",
		"ABBR_CODE": "605",
		"ABBR_DESC": "Gravelly PEAT",
		"New_Del": "New",
		"Revision_Date": "Dec 2004"
	}, {
		"ID": "146",
		"ABBR_HDNG": "GEOL_LEG",
		"ABBR_CODE": "606",
		"ABBR_DESC": "Cobbly PEAT",
		"New_Del": "New",
		"Revision_Date": "Dec 2004"
	}, {
		"ID": "147",
		"ABBR_HDNG": "GEOL_LEG",
		"ABBR_CODE": "608",
		"ABBR_DESC": "Clayey sandy PEAT",
		"New_Del": "New",
		"Revision_Date": "Dec 2004"
	}, {
		"ID": "148",
		"ABBR_HDNG": "GEOL_LEG",
		"ABBR_CODE": "609",
		"ABBR_DESC": "Clayey gravelly PEAT",
		"New_Del": "New",
		"Revision_Date": "Dec 2004"
	}, {
		"ID": "149",
		"ABBR_HDNG": "GEOL_LEG",
		"ABBR_CODE": "612",
		"ABBR_DESC": "Silty sandy PEAT",
		"New_Del": "New",
		"Revision_Date": "Dec 2004"
	}, {
		"ID": "150",
		"ABBR_HDNG": "GEOL_LEG",
		"ABBR_CODE": "613",
		"ABBR_DESC": "Silty sandy gravelly PEAT",
		"New_Del": "New",
		"Revision_Date": "Dec 2004"
	}, {
		"ID": "151",
		"ABBR_HDNG": "GEOL_LEG",
		"ABBR_CODE": "614",
		"ABBR_DESC": "Sandy gravelly PEAT",
		"New_Del": "New",
		"Revision_Date": "Dec 2004"
	}, {
		"ID": "152",
		"ABBR_HDNG": "GEOL_LEG",
		"ABBR_CODE": "701",
		"ABBR_DESC": "COBBLES",
		"New_Del": "New",
		"Revision_Date": "Dec 2004"
	}, {
		"ID": "153",
		"ABBR_HDNG": "GEOL_LEG",
		"ABBR_CODE": "702",
		"ABBR_DESC": "Clayey COBBLES",
		"New_Del": "New",
		"Revision_Date": "Dec 2004"
	}, {
		"ID": "154",
		"ABBR_HDNG": "GEOL_LEG",
		"ABBR_CODE": "703",
		"ABBR_DESC": "Silty COBBLES",
		"New_Del": "New",
		"Revision_Date": "Dec 2004"
	}, {
		"ID": "155",
		"ABBR_HDNG": "GEOL_LEG",
		"ABBR_CODE": "704",
		"ABBR_DESC": "Sandy COBBLES",
		"New_Del": "New",
		"Revision_Date": "Dec 2004"
	}, {
		"ID": "156",
		"ABBR_HDNG": "GEOL_LEG",
		"ABBR_CODE": "705",
		"ABBR_DESC": "Gravelly COBBLES",
		"New_Del": "New",
		"Revision_Date": "Dec 2004"
	}, {
		"ID": "157",
		"ABBR_HDNG": "GEOL_LEG",
		"ABBR_CODE": "706",
		"ABBR_DESC": "Organic COBBLES",
		"New_Del": "New",
		"Revision_Date": "Dec 2004"
	}, {
		"ID": "158",
		"ABBR_HDNG": "GEOL_LEG",
		"ABBR_CODE": "708",
		"ABBR_DESC": "Clayey sandy COBBLES",
		"New_Del": "New",
		"Revision_Date": "Dec 2004"
	}, {
		"ID": "159",
		"ABBR_HDNG": "GEOL_LEG",
		"ABBR_CODE": "709",
		"ABBR_DESC": "Clayey gravelly COBBLES",
		"New_Del": "New",
		"Revision_Date": "Dec 2004"
	}, {
		"ID": "160",
		"ABBR_HDNG": "GEOL_LEG",
		"ABBR_CODE": "713",
		"ABBR_DESC": "Silty sandy COBBLES",
		"New_Del": "New",
		"Revision_Date": "Dec 2004"
	}, {
		"ID": "161",
		"ABBR_HDNG": "GEOL_LEG",
		"ABBR_CODE": "714",
		"ABBR_DESC": "Silty gravelly COBBLES",
		"New_Del": "New",
		"Revision_Date": "Dec 2004"
	}, {
		"ID": "162",
		"ABBR_HDNG": "GEOL_LEG",
		"ABBR_CODE": "715",
		"ABBR_DESC": "Silty organic COBBLES",
		"New_Del": "New",
		"Revision_Date": "Dec 2004"
	}, {
		"ID": "163",
		"ABBR_HDNG": "GEOL_LEG",
		"ABBR_CODE": "716",
		"ABBR_DESC": "Silty gravelly sandy COBBLES",
		"New_Del": "New",
		"Revision_Date": "Dec 2004"
	}, {
		"ID": "164",
		"ABBR_HDNG": "GEOL_LEG",
		"ABBR_CODE": "717",
		"ABBR_DESC": "Silty sandy organic COBBLES",
		"New_Del": "New",
		"Revision_Date": "Dec 2004"
	}, {
		"ID": "165",
		"ABBR_HDNG": "GEOL_LEG",
		"ABBR_CODE": "718",
		"ABBR_DESC": "Silty sandy gravelly organic COBBLES",
		"New_Del": "New",
		"Revision_Date": "Dec 2004"
	}, {
		"ID": "166",
		"ABBR_HDNG": "GEOL_LEG",
		"ABBR_CODE": "719",
		"ABBR_DESC": "Sandy gravelly COBBLES",
		"New_Del": "New",
		"Revision_Date": "Dec 2004"
	}, {
		"ID": "167",
		"ABBR_HDNG": "GEOL_LEG",
		"ABBR_CODE": "720",
		"ABBR_DESC": "Sandy organic COBBLES",
		"New_Del": "New",
		"Revision_Date": "Dec 2004"
	}, {
		"ID": "168",
		"ABBR_HDNG": "GEOL_LEG",
		"ABBR_CODE": "721",
		"ABBR_DESC": "Gravelly organic COBBLES",
		"New_Del": "New",
		"Revision_Date": "Dec 2004"
	}, {
		"ID": "169",
		"ABBR_HDNG": "GEOL_LEG",
		"ABBR_CODE": "725",
		"ABBR_DESC": "COBBLES and BOULDERS",
		"New_Del": "New",
		"Revision_Date": "Dec 2004"
	}, {
		"ID": "170",
		"ABBR_HDNG": "GEOL_LEG",
		"ABBR_CODE": "730",
		"ABBR_DESC": "BOULDERS",
		"New_Del": "New",
		"Revision_Date": "Dec 2004"
	}, {
		"ID": "171",
		"ABBR_HDNG": "GEOL_LEG",
		"ABBR_CODE": "731",
		"ABBR_DESC": "Gravelly cobbly BOULDERS",
		"New_Del": "New",
		"Revision_Date": "Dec 2004"
	}, {
		"ID": "172",
		"ABBR_HDNG": "GEOL_LEG",
		"ABBR_CODE": "801",
		"ABBR_DESC": "MUDSTONE",
		"New_Del": "New",
		"Revision_Date": "Dec 2004"
	}, {
		"ID": "173",
		"ABBR_HDNG": "GEOL_LEG",
		"ABBR_CODE": "802",
		"ABBR_DESC": "SILTSTONE",
		"New_Del": "New",
		"Revision_Date": "Dec 2004"
	}, {
		"ID": "174",
		"ABBR_HDNG": "GEOL_LEG",
		"ABBR_CODE": "803",
		"ABBR_DESC": "SANDSTONE",
		"New_Del": "New",
		"Revision_Date": "Dec 2004"
	}, {
		"ID": "175",
		"ABBR_HDNG": "GEOL_LEG",
		"ABBR_CODE": "804",
		"ABBR_DESC": "LIMESTONE",
		"New_Del": "New",
		"Revision_Date": "Dec 2004"
	}, {
		"ID": "176",
		"ABBR_HDNG": "GEOL_LEG",
		"ABBR_CODE": "805",
		"ABBR_DESC": "CHALK",
		"New_Del": "New",
		"Revision_Date": "Dec 2004"
	}, {
		"ID": "177",
		"ABBR_HDNG": "GEOL_LEG",
		"ABBR_CODE": "806",
		"ABBR_DESC": "COAL",
		"New_Del": "New",
		"Revision_Date": "Dec 2004"
	}, {
		"ID": "178",
		"ABBR_HDNG": "GEOL_LEG",
		"ABBR_CODE": "807",
		"ABBR_DESC": "BRECCIA",
		"New_Del": "New",
		"Revision_Date": "Dec 2004"
	}, {
		"ID": "179",
		"ABBR_HDNG": "GEOL_LEG",
		"ABBR_CODE": "808",
		"ABBR_DESC": "CONGLOMERATE",
		"New_Del": "New",
		"Revision_Date": "Dec 2004"
	}, {
		"ID": "180",
		"ABBR_HDNG": "GEOL_LEG",
		"ABBR_CODE": "809",
		"ABBR_DESC": "Fine grained IGNEOUS",
		"New_Del": "New",
		"Revision_Date": "Dec 2004"
	}, {
		"ID": "181",
		"ABBR_HDNG": "GEOL_LEG",
		"ABBR_CODE": "810",
		"ABBR_DESC": "Medium grained IGNEOUS",
		"New_Del": "New",
		"Revision_Date": "Dec 2004"
	}, {
		"ID": "182",
		"ABBR_HDNG": "GEOL_LEG",
		"ABBR_CODE": "811",
		"ABBR_DESC": "Course grained IGNEOUS",
		"New_Del": "New",
		"Revision_Date": "Dec 2004"
	}, {
		"ID": "183",
		"ABBR_HDNG": "GEOL_LEG",
		"ABBR_CODE": "812",
		"ABBR_DESC": "Fine grained METAMORPHIC",
		"New_Del": "New",
		"Revision_Date": "Dec 2004"
	}, {
		"ID": "184",
		"ABBR_HDNG": "GEOL_LEG",
		"ABBR_CODE": "813",
		"ABBR_DESC": "Medium grained METAMORPHIC",
		"New_Del": "New",
		"Revision_Date": "Dec 2004"
	}, {
		"ID": "185",
		"ABBR_HDNG": "GEOL_LEG",
		"ABBR_CODE": "814",
		"ABBR_DESC": "Course grained METAMORPHIC",
		"New_Del": "New",
		"Revision_Date": "Dec 2004"
	}, {
		"ID": "186",
		"ABBR_HDNG": "GEOL_LEG",
		"ABBR_CODE": "815",
		"ABBR_DESC": "Pyroclastic (volcanic ash)",
		"New_Del": "New",
		"Revision_Date": "Dec 2004"
	}, {
		"ID": "187",
		"ABBR_HDNG": "GEOL_LEG",
		"ABBR_CODE": "816",
		"ABBR_DESC": "Gypsum, Rocksalt",
		"New_Del": "New",
		"Revision_Date": "Dec 2004"
	}, {
		"ID": "188",
		"ABBR_HDNG": "GEOL_LEG",
		"ABBR_CODE": "999",
		"ABBR_DESC": "Void",
		"New_Del": "New",
		"Revision_Date": "Dec 2004"
	}, {
		"ID": "189",
		"ABBR_HDNG": "GRAD_TYPE",
		"ABBR_CODE": "DS",
		"ABBR_DESC": "Dry sieve",
		"New_Del": "",
		"Revision_Date": "Jul 1994"
	}, {
		"ID": "190",
		"ABBR_HDNG": "GRAD_TYPE",
		"ABBR_CODE": "HY",
		"ABBR_DESC": "Hydrometer",
		"New_Del": "",
		"Revision_Date": "Jul 1994"
	}, {
		"ID": "191",
		"ABBR_HDNG": "GRAD_TYPE",
		"ABBR_CODE": "PP",
		"ABBR_DESC": "Pipette",
		"New_Del": "",
		"Revision_Date": "Jul 1994"
	}, {
		"ID": "192",
		"ABBR_HDNG": "GRAD_TYPE",
		"ABBR_CODE": "WS",
		"ABBR_DESC": "Wet sieve",
		"New_Del": "",
		"Revision_Date": "Jul 1994"
	}, {
		"ID": "193",
		"ABBR_HDNG": "HOLE_TYPE",
		"ABBR_CODE": "ABS",
		"ABBR_DESC": "Automatic Ballast Sampler",
		"New_Del": "New",
		"Revision_Date": "Dec 2004"
	}, {
		"ID": "194",
		"ABBR_HDNG": "HOLE_TYPE",
		"ABBR_CODE": "CH",
		"ABBR_DESC": "Slope surface protection stripping",
		"New_Del": "",
		"Revision_Date": "Nov 1999"
	}, {
		"ID": "195",
		"ABBR_HDNG": "HOLE_TYPE",
		"ABBR_CODE": "CP",
		"ABBR_DESC": "Cable percussion (shell and auger)",
		"New_Del": "",
		"Revision_Date": "Nov 1999"
	}, {
		"ID": "196",
		"ABBR_HDNG": "HOLE_TYPE",
		"ABBR_CODE": "DCP",
		"ABBR_DESC": "Dynamic cone penetrometer",
		"New_Del": "",
		"Revision_Date": "Nov 1999"
	}, {
		"ID": "197",
		"ABBR_HDNG": "HOLE_TYPE",
		"ABBR_CODE": "DP",
		"ABBR_DESC": "Dynamic probe sampling",
		"New_Del": "",
		"Revision_Date": "Nov 1999"
	}, {
		"ID": "198",
		"ABBR_HDNG": "HOLE_TYPE",
		"ABBR_CODE": "EXP",
		"ABBR_DESC": "Logged exposure",
		"New_Del": "",
		"Revision_Date": "Nov 1999"
	}, {
		"ID": "199",
		"ABBR_HDNG": "HOLE_TYPE",
		"ABBR_CODE": "GCOP",
		"ABBR_DESC": "GCO probe",
		"New_Del": "",
		"Revision_Date": "Nov 1999"
	}, {
		"ID": "200",
		"ABBR_HDNG": "HOLE_TYPE",
		"ABBR_CODE": "HA",
		"ABBR_DESC": "Hand Auger",
		"New_Del": "New",
		"Revision_Date": "Dec 2004"
	}, {
		"ID": "201",
		"ABBR_HDNG": "HOLE_TYPE",
		"ABBR_CODE": "ICBR",
		"ABBR_DESC": "in situ CBR test (see note 2)",
		"New_Del": "",
		"Revision_Date": "Nov 1999"
	}, {
		"ID": "202",
		"ABBR_HDNG": "HOLE_TYPE",
		"ABBR_CODE": "IDEN",
		"ABBR_DESC": "in situ density test (see note 2)",
		"New_Del": "",
		"Revision_Date": "Nov 1999"
	}, {
		"ID": "203",
		"ABBR_HDNG": "HOLE_TYPE",
		"ABBR_CODE": "INST",
		"ABBR_DESC": "instrument",
		"New_Del": "",
		"Revision_Date": "Nov 1999"
	}, {
		"ID": "204",
		"ABBR_HDNG": "HOLE_TYPE",
		"ABBR_CODE": "IRDX",
		"ABBR_DESC": "in situ redox test (see note 2)",
		"New_Del": "",
		"Revision_Date": "Nov 1999"
	}, {
		"ID": "205",
		"ABBR_HDNG": "HOLE_TYPE",
		"ABBR_CODE": "IRES",
		"ABBR_DESC": "in situ resistivity (see note 2)",
		"New_Del": "",
		"Revision_Date": "Nov 1999"
	}, {
		"ID": "206",
		"ABBR_HDNG": "HOLE_TYPE",
		"ABBR_CODE": "IVAN",
		"ABBR_DESC": "in situ penetration vane test (see note 2)",
		"New_Del": "",
		"Revision_Date": "Nov 1999"
	}, {
		"ID": "207",
		"ABBR_HDNG": "HOLE_TYPE",
		"ABBR_CODE": "IP",
		"ABBR_DESC": "Inspection pit",
		"New_Del": "",
		"Revision_Date": "Nov 1999"
	}, {
		"ID": "208",
		"ABBR_HDNG": "HOLE_TYPE",
		"ABBR_CODE": "OP",
		"ABBR_DESC": "Observation pit\/trench",
		"New_Del": "",
		"Revision_Date": "Nov 1999"
	}, {
		"ID": "209",
		"ABBR_HDNG": "HOLE_TYPE",
		"ABBR_CODE": "PM",
		"ABBR_DESC": "Pressuremeter test hole",
		"New_Del": "New",
		"Revision_Date": "Dec 2004"
	}, {
		"ID": "210",
		"ABBR_HDNG": "HOLE_TYPE",
		"ABBR_CODE": "RC",
		"ABBR_DESC": "Rotary cored",
		"New_Del": "",
		"Revision_Date": "Nov 1999"
	}, {
		"ID": "211",
		"ABBR_HDNG": "HOLE_TYPE",
		"ABBR_CODE": "RCG",
		"ABBR_DESC": "Rotary drilling in common ground",
		"New_Del": "",
		"Revision_Date": "Nov 1999"
	}, {
		"ID": "212",
		"ABBR_HDNG": "HOLE_TYPE",
		"ABBR_CODE": "RO",
		"ABBR_DESC": "Rotary open hole",
		"New_Del": "",
		"Revision_Date": "Nov 1999"
	}, {
		"ID": "213",
		"ABBR_HDNG": "HOLE_TYPE",
		"ABBR_CODE": "SH",
		"ABBR_DESC": "Shaft",
		"New_Del": "New",
		"Revision_Date": "Dec 2004"
	}, {
		"ID": "214",
		"ABBR_HDNG": "HOLE_TYPE",
		"ABBR_CODE": "SCP",
		"ABBR_DESC": "Static cone penetrometer",
		"New_Del": "",
		"Revision_Date": "Nov 1999"
	}, {
		"ID": "215",
		"ABBR_HDNG": "HOLE_TYPE",
		"ABBR_CODE": "TP",
		"ABBR_DESC": "Trial pit\/trench",
		"New_Del": "",
		"Revision_Date": "Nov 1999"
	}, {
		"ID": "216",
		"ABBR_HDNG": "HOLE_TYPE",
		"ABBR_CODE": "TRAV",
		"ABBR_DESC": "Linear logging traverse or scanline survey",
		"New_Del": "",
		"Revision_Date": "Nov 1999"
	}, {
		"ID": "217",
		"ABBR_HDNG": "HOLE_TYPE",
		"ABBR_CODE": "VC",
		"ABBR_DESC": "Vibrocore",
		"New_Del": "",
		"Revision_Date": "Nov 1999"
	}, {
		"ID": "218",
		"ABBR_HDNG": "HOLE_TYPE",
		"ABBR_CODE": "W",
		"ABBR_DESC": "Wash boring",
		"New_Del": "",
		"Revision_Date": "Nov 1999"
	}, {
		"ID": "219",
		"ABBR_HDNG": "HOLE_TYPE",
		"ABBR_CODE": "WLS",
		"ABBR_DESC": "Dynamic (windowless) sampler",
		"New_Del": "New",
		"Revision_Date": "Dec 2004"
	}, {
		"ID": "220",
		"ABBR_HDNG": "HOLE_TYPE",
		"ABBR_CODE": "WS",
		"ABBR_DESC": "Window Sampler",
		"New_Del": "New",
		"Revision_Date": "Dec 2004"
	}, {
		"ID": "221",
		"ABBR_HDNG": "INST_TYPE",
		"ABBR_CODE": "EPCE",
		"ABBR_DESC": "Embedment pressure cell - electronic",
		"New_Del": "",
		"Revision_Date": "Jul 1994"
	}, {
		"ID": "222",
		"ABBR_HDNG": "INST_TYPE",
		"ABBR_CODE": "EPCH",
		"ABBR_DESC": "Embedment pressure cell - hydraulic",
		"New_Del": "",
		"Revision_Date": "Jul 1994"
	}, {
		"ID": "223",
		"ABBR_HDNG": "INST_TYPE",
		"ABBR_CODE": "EPCP",
		"ABBR_DESC": "Embedment pressure cell - pneumatic",
		"New_Del": "",
		"Revision_Date": "Jul 1994"
	}, {
		"ID": "224",
		"ABBR_HDNG": "INST_TYPE",
		"ABBR_CODE": "ESET",
		"ABBR_DESC": "Electronic settlement cell\/gauges",
		"New_Del": "",
		"Revision_Date": "Jul 1994"
	}, {
		"ID": "225",
		"ABBR_HDNG": "INST_TYPE",
		"ABBR_CODE": "HSET",
		"ABBR_DESC": "Hydraulic settlement cell\/gauges",
		"New_Del": "",
		"Revision_Date": "Jul 1994"
	}, {
		"ID": "226",
		"ABBR_HDNG": "INST_TYPE",
		"ABBR_CODE": "IPCE",
		"ABBR_DESC": "Interface pressure cell - electronic",
		"New_Del": "",
		"Revision_Date": "Jul 1994"
	}, {
		"ID": "227",
		"ABBR_HDNG": "INST_TYPE",
		"ABBR_CODE": "IPCH",
		"ABBR_DESC": "Interface pressure cell - hydraulic",
		"New_Del": "",
		"Revision_Date": "Jul 1994"
	}, {
		"ID": "228",
		"ABBR_HDNG": "INST_TYPE",
		"ABBR_CODE": "IPCP",
		"ABBR_DESC": "Interface pressure cell - pneumatic",
		"New_Del": "",
		"Revision_Date": "Jul 1994"
	}, {
		"ID": "229",
		"ABBR_HDNG": "INST_TYPE",
		"ABBR_CODE": "MSET",
		"ABBR_DESC": "Levelling point or plate",
		"New_Del": "",
		"Revision_Date": "Jul 1994"
	}, {
		"ID": "230",
		"ABBR_HDNG": "INST_TYPE",
		"ABBR_CODE": "PPCE",
		"ABBR_DESC": "Push in pressure cell - electronic",
		"New_Del": "",
		"Revision_Date": "Jul 1994"
	}, {
		"ID": "231",
		"ABBR_HDNG": "INST_TYPE",
		"ABBR_CODE": "PPCH",
		"ABBR_DESC": "Push in pressure cell - hydraulic",
		"New_Del": "",
		"Revision_Date": "Jul 1994"
	}, {
		"ID": "232",
		"ABBR_HDNG": "INST_TYPE",
		"ABBR_CODE": "PPCP",
		"ABBR_DESC": "Push in pressure cell - pneumatic",
		"New_Del": "",
		"Revision_Date": "Jul 1994"
	}, {
		"ID": "233",
		"ABBR_HDNG": "INST_TYPE",
		"ABBR_CODE": "PSET",
		"ABBR_DESC": "Pneumatic settlement cell\/gauges",
		"New_Del": "",
		"Revision_Date": "Jul 1994"
	}, {
		"ID": "234",
		"ABBR_HDNG": "INST_TYPE",
		"ABBR_CODE": "XSET",
		"ABBR_DESC": "Extensometer settlement point",
		"New_Del": "",
		"Revision_Date": "Jul 1994"
	}, {
		"ID": "235",
		"ABBR_HDNG": "ISPT_TYPE",
		"ABBR_CODE": "C",
		"ABBR_DESC": "Cone",
		"New_Del": "",
		"Revision_Date": "Jul 1994"
	}, {
		"ID": "236",
		"ABBR_HDNG": "ISPT_TYPE",
		"ABBR_CODE": "S",
		"ABBR_DESC": "Split spoon",
		"New_Del": "",
		"Revision_Date": "Jul 1994"
	}, {
		"ID": "237",
		"ABBR_HDNG": "MONP_TYPE",
		"ABBR_CODE": "DM",
		"ABBR_DESC": "Discontinuity monitoring",
		"New_Del": "New",
		"Revision_Date": "Mar 2002"
	}, {
		"ID": "238",
		"ABBR_HDNG": "MONP_TYPE",
		"ABBR_CODE": "TMU",
		"ABBR_DESC": "Tiltmeter - Uniaxial",
		"New_Del": "New",
		"Revision_Date": "Mar 2002"
	}, {
		"ID": "239",
		"ABBR_HDNG": "MONP_TYPE",
		"ABBR_CODE": "TMB",
		"ABBR_DESC": "Tiltmeter ",
		"New_Del": "New",
		"Revision_Date": "Mar 2002"
	}, {
		"ID": "240",
		"ABBR_HDNG": "MONP_TYPE",
		"ABBR_CODE": "ICM",
		"ABBR_DESC": "Inclinometer - Manual",
		"New_Del": "New",
		"Revision_Date": "Mar 2002"
	}, {
		"ID": "241",
		"ABBR_HDNG": "MONP_TYPE",
		"ABBR_CODE": "ICE",
		"ABBR_DESC": "Inclinometer ",
		"New_Del": "New",
		"Revision_Date": "Mar 2002"
	}, {
		"ID": "242",
		"ABBR_HDNG": "MONP_TYPE",
		"ABBR_CODE": "LC",
		"ABBR_DESC": "Load cell",
		"New_Del": "New",
		"Revision_Date": "Mar 2002"
	}, {
		"ID": "243",
		"ABBR_HDNG": "MONP_TYPE",
		"ABBR_CODE": "ETR",
		"ABBR_DESC": "Rod Extensometer ",
		"New_Del": "New",
		"Revision_Date": "Mar 2002"
	}, {
		"ID": "244",
		"ABBR_HDNG": "MONP_TYPE",
		"ABBR_CODE": "ETM",
		"ABBR_DESC": "Magnetic Extensometer",
		"New_Del": "New",
		"Revision_Date": "Mar 2002"
	}, {
		"ID": "245",
		"ABBR_HDNG": "MONP_TYPE",
		"ABBR_CODE": "ETT",
		"ABBR_DESC": "Tape Extensometer",
		"New_Del": "New",
		"Revision_Date": "Mar 2002"
	}, {
		"ID": "246",
		"ABBR_HDNG": "MONP_TYPE",
		"ABBR_CODE": "EPCE",
		"ABBR_DESC": "Embedment pressure cell ",
		"New_Del": "New",
		"Revision_Date": "Mar 2002"
	}, {
		"ID": "247",
		"ABBR_HDNG": "MONP_TYPE",
		"ABBR_CODE": "EPCH",
		"ABBR_DESC": "Embedment pressure cell ",
		"New_Del": "New",
		"Revision_Date": "Mar 2002"
	}, {
		"ID": "248",
		"ABBR_HDNG": "MONP_TYPE",
		"ABBR_CODE": "EPCP",
		"ABBR_DESC": "Embedment pressure cell ",
		"New_Del": "New",
		"Revision_Date": "Mar 2002"
	}, {
		"ID": "249",
		"ABBR_HDNG": "MONP_TYPE",
		"ABBR_CODE": "IPCE",
		"ABBR_DESC": "Interface pressure cell ",
		"New_Del": "New",
		"Revision_Date": "Mar 2002"
	}, {
		"ID": "250",
		"ABBR_HDNG": "MONP_TYPE",
		"ABBR_CODE": "IPCH",
		"ABBR_DESC": "Interface pressure cell ",
		"New_Del": "New",
		"Revision_Date": "Mar 2002"
	}, {
		"ID": "251",
		"ABBR_HDNG": "MONP_TYPE",
		"ABBR_CODE": "IPCP",
		"ABBR_DESC": "Interface pressure cell ",
		"New_Del": "New",
		"Revision_Date": "Mar 2002"
	}, {
		"ID": "252",
		"ABBR_HDNG": "MONP_TYPE",
		"ABBR_CODE": "PPCE",
		"ABBR_DESC": "Push in pressure cell ",
		"New_Del": "New",
		"Revision_Date": "Mar 2002"
	}, {
		"ID": "253",
		"ABBR_HDNG": "MONP_TYPE",
		"ABBR_CODE": "PPCH",
		"ABBR_DESC": "Push in pressure cell ",
		"New_Del": "New",
		"Revision_Date": "Mar 2002"
	}, {
		"ID": "254",
		"ABBR_HDNG": "MONP_TYPE",
		"ABBR_CODE": "PPCP",
		"ABBR_DESC": "Push in pressure cell ",
		"New_Del": "New",
		"Revision_Date": "Mar 2002"
	}, {
		"ID": "255",
		"ABBR_HDNG": "MONP_TYPE",
		"ABBR_CODE": "MSET",
		"ABBR_DESC": "Levelling point or plate",
		"New_Del": "New",
		"Revision_Date": "Mar 2002"
	}, {
		"ID": "256",
		"ABBR_HDNG": "MONP_TYPE",
		"ABBR_CODE": "TS",
		"ABBR_DESC": "Total station point",
		"New_Del": "New",
		"Revision_Date": "Mar 2002"
	}, {
		"ID": "257",
		"ABBR_HDNG": "MONP_TYPE",
		"ABBR_CODE": "ESET",
		"ABBR_DESC": "Electronic settlement cell\/gauges",
		"New_Del": "New",
		"Revision_Date": "Mar 2002"
	}, {
		"ID": "258",
		"ABBR_HDNG": "MONP_TYPE",
		"ABBR_CODE": "HSET",
		"ABBR_DESC": "Hydraulic settlement cell\/gauges",
		"New_Del": "New",
		"Revision_Date": "Mar 2002"
	}, {
		"ID": "259",
		"ABBR_HDNG": "MONP_TYPE",
		"ABBR_CODE": "PSET",
		"ABBR_DESC": "Pneumatic settlement cell\/gauges",
		"New_Del": "New",
		"Revision_Date": "Mar 2002"
	}, {
		"ID": "260",
		"ABBR_HDNG": "MONP_TYPE",
		"ABBR_CODE": "SP",
		"ABBR_DESC": "Standpipe",
		"New_Del": "New",
		"Revision_Date": "Mar 2002"
	}, {
		"ID": "261",
		"ABBR_HDNG": "MONP_TYPE",
		"ABBR_CODE": "SPIE",
		"ABBR_DESC": "Standpipe piezometer ",
		"New_Del": "New",
		"Revision_Date": "Mar 2002"
	}, {
		"ID": "262",
		"ABBR_HDNG": "MONP_TYPE",
		"ABBR_CODE": "HPIE",
		"ABBR_DESC": "Hydraulic piezometer",
		"New_Del": "New",
		"Revision_Date": "Mar 2002"
	}, {
		"ID": "263",
		"ABBR_HDNG": "MONP_TYPE",
		"ABBR_CODE": "PPIE",
		"ABBR_DESC": "Pneumatic Piezometer ",
		"New_Del": "New",
		"Revision_Date": "Mar 2002"
	}, {
		"ID": "264",
		"ABBR_HDNG": "MONP_TYPE",
		"ABBR_CODE": "EPIE",
		"ABBR_DESC": "Electronic Piezometer ",
		"New_Del": "New",
		"Revision_Date": "Mar 2002"
	}, {
		"ID": "265",
		"ABBR_HDNG": "MONP_TYPE",
		"ABBR_CODE": "SG",
		"ABBR_DESC": "Strain gauge",
		"New_Del": "New",
		"Revision_Date": "Mar 2002"
	}, {
		"ID": "266",
		"ABBR_HDNG": "MONP_TYPE",
		"ABBR_CODE": "TP",
		"ABBR_DESC": "Temperature measuring point",
		"New_Del": "New",
		"Revision_Date": "Mar 2002"
	}, {
		"ID": "267",
		"ABBR_HDNG": "MONP_TYPE",
		"ABBR_CODE": "GWMP",
		"ABBR_DESC": "Groundwater monitoring point",
		"New_Del": "New",
		"Revision_Date": "Mar 2002"
	}, {
		"ID": "268",
		"ABBR_HDNG": "MONP_TYPE",
		"ABBR_CODE": "GMP",
		"ABBR_DESC": "Gas monitoring point",
		"New_Del": "New",
		"Revision_Date": "Mar 2002"
	}, {
		"ID": "269",
		"ABBR_HDNG": "MONP_TYPE",
		"ABBR_CODE": "SLIP",
		"ABBR_DESC": "Slip indicator",
		"New_Del": "New",
		"Revision_Date": "Mar 2002"
	}, {
		"ID": "270",
		"ABBR_HDNG": "PREF_TYPE",
		"ABBR_CODE": "SP",
		"ABBR_DESC": "Standpipe",
		"New_Del": "",
		"Revision_Date": "Jul 1994"
	}, {
		"ID": "271",
		"ABBR_HDNG": "PREF_TYPE",
		"ABBR_CODE": "SPIE",
		"ABBR_DESC": "Standpipe piezometer",
		"New_Del": "",
		"Revision_Date": "Jul 1994"
	}, {
		"ID": "272",
		"ABBR_HDNG": "PREF_TYPE",
		"ABBR_CODE": "HPIE",
		"ABBR_DESC": "Hydraulic piezometer",
		"New_Del": "",
		"Revision_Date": "Jul 1994"
	}, {
		"ID": "273",
		"ABBR_HDNG": "PREF_TYPE",
		"ABBR_CODE": "PPIE",
		"ABBR_DESC": "Pneumatic piezometer",
		"New_Del": "",
		"Revision_Date": "Jul 1994"
	}, {
		"ID": "274",
		"ABBR_HDNG": "PREF_TYPE",
		"ABBR_CODE": "EPIE",
		"ABBR_DESC": "Electronic piezometer",
		"New_Del": "",
		"Revision_Date": "Jul 1994"
	}, {
		"ID": "275",
		"ABBR_HDNG": "PROF_TYPE",
		"ABBR_CODE": "INCL",
		"ABBR_DESC": "Inclinometer",
		"New_Del": "",
		"Revision_Date": "Jul 1994"
	}, {
		"ID": "276",
		"ABBR_HDNG": "PROF_TYPE",
		"ABBR_CODE": "SLIP",
		"ABBR_DESC": "Slip indicator",
		"New_Del": "",
		"Revision_Date": "Jul 1994"
	}, {
		"ID": "277",
		"ABBR_HDNG": "PRTD_TYPE",
		"ABBR_CODE": "SBP",
		"ABBR_DESC": "Self boring pressuremeter",
		"New_Del": "",
		"Revision_Date": "Nov 1999"
	}, {
		"ID": "278",
		"ABBR_HDNG": "PRTD_TYPE",
		"ABBR_CODE": "HPD",
		"ABBR_DESC": "High pressure dilatometer",
		"New_Del": "",
		"Revision_Date": "Nov 1999"
	}, {
		"ID": "279",
		"ABBR_HDNG": "PRTD_TYPE",
		"ABBR_CODE": "WRSBP",
		"ABBR_DESC": "Weak rock self boring pressuremeter",
		"New_Del": "",
		"Revision_Date": "Nov 1999"
	}, {
		"ID": "280",
		"ABBR_HDNG": "PRTD_TYPE",
		"ABBR_CODE": "MPM",
		"ABBR_DESC": "Menard type pressuremeter",
		"New_Del": "",
		"Revision_Date": "Nov 1999"
	}, {
		"ID": "281",
		"ABBR_HDNG": "PRTD_TYPE",
		"ABBR_CODE": "PIP",
		"ABBR_DESC": "Push-in pressuremeter",
		"New_Del": "",
		"Revision_Date": "Nov 1999"
	}, {
		"ID": "282",
		"ABBR_HDNG": "ROCK_PLTF",
		"ABBR_CODE": "A",
		"ABBR_DESC": "Axial",
		"New_Del": "New",
		"Revision_Date": "Dec 2004"
	}, {
		"ID": "283",
		"ABBR_HDNG": "ROCK_PLTF",
		"ABBR_CODE": "D",
		"ABBR_DESC": "Diametral",
		"New_Del": "New",
		"Revision_Date": "Dec 2004"
	}, {
		"ID": "284",
		"ABBR_HDNG": "ROCK_PLTF",
		"ABBR_CODE": "L",
		"ABBR_DESC": "Parallel to planes of weakness",
		"New_Del": "New",
		"Revision_Date": "Dec 2004"
	}, {
		"ID": "285",
		"ABBR_HDNG": "ROCK_PLTF",
		"ABBR_CODE": "P",
		"ABBR_DESC": "Perpendicular to planes of weakness",
		"New_Del": "New",
		"Revision_Date": "Dec 2004"
	}, {
		"ID": "286",
		"ABBR_HDNG": "ROCK_PLTF",
		"ABBR_CODE": "I",
		"ABBR_DESC": "Irregular lump",
		"New_Del": "New",
		"Revision_Date": "Dec 2004"
	}, {
		"ID": "287",
		"ABBR_HDNG": "ROCK_PLTF",
		"ABBR_CODE": "B",
		"ABBR_DESC": "Block",
		"New_Del": "New",
		"Revision_Date": "Dec 2004"
	}, {
		"ID": "288",
		"ABBR_HDNG": "SAMP_TYPE",
		"ABBR_CODE": "AMAL",
		"ABBR_DESC": "Amalgamated sample (see note 3)",
		"New_Del": "",
		"Revision_Date": "Nov 1999"
	}, {
		"ID": "289",
		"ABBR_HDNG": "SAMP_TYPE",
		"ABBR_CODE": "B",
		"ABBR_DESC": "Bulk disturbed sample",
		"New_Del": "",
		"Revision_Date": "Nov 1999"
	}, {
		"ID": "290",
		"ABBR_HDNG": "SAMP_TYPE",
		"ABBR_CODE": "BLK",
		"ABBR_DESC": "Block sample",
		"New_Del": "",
		"Revision_Date": "Nov 1999"
	}, {
		"ID": "291",
		"ABBR_HDNG": "SAMP_TYPE",
		"ABBR_CODE": "C",
		"ABBR_DESC": "Core sample",
		"New_Del": "",
		"Revision_Date": "Nov 1999"
	}, {
		"ID": "292",
		"ABBR_HDNG": "SAMP_TYPE",
		"ABBR_CODE": "CBR",
		"ABBR_DESC": "CBR mould sample",
		"New_Del": "",
		"Revision_Date": "Nov 1999"
	}, {
		"ID": "293",
		"ABBR_HDNG": "SAMP_TYPE",
		"ABBR_CODE": "D",
		"ABBR_DESC": "Small disturbed sample",
		"New_Del": "",
		"Revision_Date": "Nov 1999"
	}, {
		"ID": "294",
		"ABBR_HDNG": "SAMP_TYPE",
		"ABBR_CODE": "G",
		"ABBR_DESC": "Gas sample",
		"New_Del": "",
		"Revision_Date": "Nov 1999"
	}, {
		"ID": "295",
		"ABBR_HDNG": "SAMP_TYPE",
		"ABBR_CODE": "LB",
		"ABBR_DESC": "Large bulk disturbed sample (for earthworks testing)",
		"New_Del": "",
		"Revision_Date": "Nov 1999"
	}, {
		"ID": "296",
		"ABBR_HDNG": "SAMP_TYPE",
		"ABBR_CODE": "M",
		"ABBR_DESC": "Mazier type sample",
		"New_Del": "",
		"Revision_Date": "Nov 1999"
	}, {
		"ID": "297",
		"ABBR_HDNG": "SAMP_TYPE",
		"ABBR_CODE": "P",
		"ABBR_DESC": "Piston sample",
		"New_Del": "",
		"Revision_Date": "Nov 1999"
	}, {
		"ID": "298",
		"ABBR_HDNG": "SAMP_TYPE",
		"ABBR_CODE": "SPTLS",
		"ABBR_DESC": "Standard penetration test liner sample",
		"New_Del": "",
		"Revision_Date": "Nov 1999"
	}, {
		"ID": "299",
		"ABBR_HDNG": "SAMP_TYPE",
		"ABBR_CODE": "TW",
		"ABBR_DESC": "Thin walled push in sample",
		"New_Del": "",
		"Revision_Date": "Nov 1999"
	}, {
		"ID": "300",
		"ABBR_HDNG": "SAMP_TYPE",
		"ABBR_CODE": "U",
		"ABBR_DESC": "Undisturbed sample - open drive",
		"New_Del": "",
		"Revision_Date": "Nov 1999"
	}, {
		"ID": "301",
		"ABBR_HDNG": "SAMP_TYPE",
		"ABBR_CODE": "W",
		"ABBR_DESC": "Water sample",
		"New_Del": "",
		"Revision_Date": "Nov 1999"
	}, {
		"ID": "302",
		"ABBR_HDNG": "SAMP_TYPE",
		"ABBR_CODE": "ES",
		"ABBR_DESC": "Soil sample for environmental testing",
		"New_Del": "New",
		"Revision_Date": "Dec 2004"
	}, {
		"ID": "303",
		"ABBR_HDNG": "SAMP_TYPE",
		"ABBR_CODE": "EW",
		"ABBR_DESC": "Water sample for environmental testing",
		"New_Del": "New",
		"Revision_Date": "Dec 2004"
	}, {
		"ID": "304",
		"ABBR_HDNG": "STCN_TYP",
		"ABBR_CODE": "CC",
		"ABBR_DESC": "Conductivity cone",
		"New_Del": "",
		"Revision_Date": "Jul 1994"
	}, {
		"ID": "305",
		"ABBR_HDNG": "STCN_TYP",
		"ABBR_CODE": "EC",
		"ABBR_DESC": "Electric cone",
		"New_Del": "",
		"Revision_Date": "Jul 1994"
	}, {
		"ID": "306",
		"ABBR_HDNG": "STCN_TYP",
		"ABBR_CODE": "FFD",
		"ABBR_DESC": "Fuel fluorescence cone",
		"New_Del": "",
		"Revision_Date": "Jul 1994"
	}, {
		"ID": "307",
		"ABBR_HDNG": "STCN_TYP",
		"ABBR_CODE": "MC",
		"ABBR_DESC": "Mechanical cone",
		"New_Del": "",
		"Revision_Date": "Jul 1994"
	}, {
		"ID": "308",
		"ABBR_HDNG": "STCN_TYP",
		"ABBR_CODE": "PC",
		"ABBR_DESC": "Piezo cone",
		"New_Del": "",
		"Revision_Date": "Jul 1994"
	}, {
		"ID": "309",
		"ABBR_HDNG": "STCN_TYP",
		"ABBR_CODE": "TC",
		"ABBR_DESC": "Temperature cone",
		"New_Del": "",
		"Revision_Date": "Jul 1994"
	}, {
		"ID": "310",
		"ABBR_HDNG": "TRIG_TYPE",
		"ABBR_CODE": "CD",
		"ABBR_DESC": "Consolidated drained (single stage)",
		"New_Del": "",
		"Revision_Date": "Jul 1994"
	}, {
		"ID": "311",
		"ABBR_HDNG": "TRIG_TYPE",
		"ABBR_CODE": "CDM",
		"ABBR_DESC": "Consolidated drained (multi-stage)",
		"New_Del": "",
		"Revision_Date": "Jul 1994"
	}, {
		"ID": "312",
		"ABBR_HDNG": "TRIG_TYPE",
		"ABBR_CODE": "CU",
		"ABBR_DESC": "Consolidated undrained with pwp measurement (single stage)",
		"New_Del": "",
		"Revision_Date": "Jul 1994"
	}, {
		"ID": "313",
		"ABBR_HDNG": "TRIG_TYPE",
		"ABBR_CODE": "CUM",
		"ABBR_DESC": "Consolidated undrained with pwp measurement (multi-stage)",
		"New_Del": "",
		"Revision_Date": "Jul 1994"
	}, {
		"ID": "314",
		"ABBR_HDNG": "TRIG_TYPE",
		"ABBR_CODE": "UU",
		"ABBR_DESC": "Unconsolidated quick undrained (single stage)",
		"New_Del": "",
		"Revision_Date": "Jul 1994"
	}, {
		"ID": "315",
		"ABBR_HDNG": "TRIG_TYPE",
		"ABBR_CODE": "UUM",
		"ABBR_DESC": "Unconsolidated quick undrained (multi-stage)",
		"New_Del": "",
		"Revision_Date": "Jul 1994"
	}, {
		"ID": "316",
		"ABBR_HDNG": "GEOL_LEG",
		"ABBR_CODE": "817",
		"ABBR_DESC": "Shale",
		"New_Del": "New",
		"Revision_Date": "Jan 2006"
	}, {
		"ID": "317",
		"ABBR_HDNG": "HOLE_TYPE",
		"ABBR_CODE": "VE",
		"ABBR_DESC": "Vacuum Excavation",
		"New_Del": "New",
		"Revision_Date": "May 2014"
	}
]
