[
 {
   "Category": "General",
   "Description": "General example",
   "Link to Guidance": "",
   "Link to Example": "https://gitlab.com/Didymograptus/ASG4/raw/master/AGS4/examples/AGS4_Example_File_v07_130502.zip||Download AGS 4 example file v07"
 },
 {
   "Category": "Monitoring",
   "Description": "Example 1: Temperature measuring point example",
   "Link to Guidance": "https://gitlab.com/Didymograptus/ASG4/raw/master/AGS4/guidance/01-temperature_measuring_point_4.pdf||Download Description Document",
   "Link to Example": "https://gitlab.com/Didymograptus/ASG4/raw/master/AGS4/examples/01-temperature_measuring_point_4_0.zip||Download AGS File"
 },
 {
   "Category": "Monitoring",
   "Description": "Example 2: Precise level point",
   "Link to Guidance": "https://gitlab.com/Didymograptus/ASG4/raw/master/AGS4/guidance/02-precise_level_point_4.pdf||Download Description Document",
   "Link to Example": "https://gitlab.com/Didymograptus/ASG4/raw/master/AGS4/examples/02-precise_level_point_4_0.zip||Download AGS File"
 },
 {
   "Category": "Monitoring",
   "Description": "Example 3: Total station point",
   "Link to Guidance": "https://gitlab.com/Didymograptus/ASG4/raw/master/AGS4/guidance/03-total_station_point_4.pdf||Download Description Document",
   "Link to Example": "https://gitlab.com/Didymograptus/ASG4/raw/master/AGS4/examples/03-total_station_point_4_0.zip||Download AGS File"
 },
 {
   "Category": "Monitoring",
   "Description": "Example 4: Standpipe Piezometer example",
   "Link to Guidance": "https://gitlab.com/Didymograptus/ASG4/raw/master/AGS4/guidance/04-standpipe_piezometer_4.pdf||Download Description Document",
   "Link to Example": "https://gitlab.com/Didymograptus/ASG4/raw/master/AGS4/examples/04-standpipe_piezometer_4_0.zip||Download AGS File"
 },
 {
   "Category": "Monitoring",
   "Description": "Example 5: Strain gauge example",
   "Link to Guidance": "https://gitlab.com/Didymograptus/ASG4/raw/master/AGS4/guidance/05-strain_gauge_4.pdf||Download Description Document",
   "Link to Example": "https://gitlab.com/Didymograptus/ASG4/raw/master/AGS4/examples/05-strain_gauge_4_0.zip||Download AGS File"
 },
 {
   "Category": "Monitoring",
   "Description": "Example 6: Prop load example",
   "Link to Guidance": "https://gitlab.com/Didymograptus/ASG4/raw/master/AGS4/guidance/06-prop_load_4.pdf||Download Description Document",
   "Link to Example": "https://gitlab.com/Didymograptus/ASG4/raw/master/AGS4/examples/06-prop_load_4_0.zip||Download AGS File"
 },
 {
   "Category": "Monitoring",
   "Description": "Example 7: Earth pressure cell example",
   "Link to Guidance": "https://gitlab.com/Didymograptus/ASG4/raw/master/AGS4/guidance/07-earth_pressure_cell_4.pdf||Download Description Document",
   "Link to Example": "https://gitlab.com/Didymograptus/ASG4/raw/master/AGS4/examples/07-earth_pressure_cell_4_0.zip||Download AGS File"
 },
 {
   "Category": "Monitoring",
   "Description": "Example 8: Hydraulic settlement cell example",
   "Link to Guidance": "https://gitlab.com/Didymograptus/ASG4/raw/master/AGS4/guidance/08-hydraulic_settlement_cell_4.pdf||Download Description Document",
   "Link to Example": "https://gitlab.com/Didymograptus/ASG4/raw/master/AGS4/examples/08-hydraulic_settlement_cell_4_0.zip||Download AGS File"
 },
 {
   "Category": "Monitoring",
   "Description": "Example 9: Slip indicator example",
   "Link to Guidance": "https://gitlab.com/Didymograptus/ASG4/raw/master/AGS4/guidance/09-slip_indicator_4.pdf||Download Description Document",
   "Link to Example": "https://gitlab.com/Didymograptus/ASG4/raw/master/AGS4/examples/09-slip_indicator_4_0.zip||Download AGS File"
 },
 {
   "Category": "Monitoring",
   "Description": "Example 10: Discontinuity monitoring example",
   "Link to Guidance": "https://gitlab.com/Didymograptus/ASG4/raw/master/AGS4/guidance/10-discontinuity_monitoring_4.pdf||Download Description Document",
   "Link to Example": "https://gitlab.com/Didymograptus/ASG4/raw/master/AGS4/examples/10-discontinuity_monitoring_4_0.zip||Download AGS File"
 },
 {
   "Category": "Monitoring",
   "Description": "Example 11: Electrolevel uniaxial option 1 example",
   "Link to Guidance": "https://gitlab.com/Didymograptus/ASG4/raw/master/AGS4/guidance/11-electrolevel_uniaxial_option_1_4.pdf||Download Description Document",
   "Link to Example": "https://gitlab.com/Didymograptus/ASG4/raw/master/AGS4/examples/11-electrolevel_uniaxial_option_1_4_0.zip||Download AGS File"
 },
 {
   "Category": "Monitoring",
   "Description": "Example 12: Electrolevel uniaxial option 2 example",
   "Link to Guidance": "https://gitlab.com/Didymograptus/ASG4/raw/master/AGS4/guidance/12-electrolevel_uniaxial_option_2_4.pdf||Download Description Document",
   "Link to Example": "https://gitlab.com/Didymograptus/ASG4/raw/master/AGS4/examples/12-electrolevel_uniaxial_option_2_4_0.zip||Download AGS File"
 },
 {
   "Category": "Monitoring",
   "Description": "Example 13: Electrolevel biaxial option 1 example",
   "Link to Guidance": "https://gitlab.com/Didymograptus/ASG4/raw/master/AGS4/guidance/13-electrolevel_biaxial_option_1_4.pdf||Download Description Document",
   "Link to Example": "https://gitlab.com/Didymograptus/ASG4/raw/master/AGS4/examples/13-electrolevel_biaxial_option_1_4_0.zip||Download AGS File"
 },
 {
   "Category": "Monitoring",
   "Description": "Example 14: Electrolevel biaxial option 2 example",
   "Link to Guidance": "https://gitlab.com/Didymograptus/ASG4/raw/master/AGS4/guidance/14-electrolevel_biaxial_option_2_4.pdf||Download Description Document",
   "Link to Example": "https://gitlab.com/Didymograptus/ASG4/raw/master/AGS4/examples/14-electrolevel_biaxial_option_2_4_0.zip||Download AGS File"
 },
 {
   "Category": "Monitoring",
   "Description": "Example 15: Tunnel rod extensometer example",
   "Link to Guidance": "https://gitlab.com/Didymograptus/ASG4/raw/master/AGS4/guidance/15-tunnel_rod_extensometer_4.pdf||Download Description Document",
   "Link to Example": "https://gitlab.com/Didymograptus/ASG4/raw/master/AGS4/examples/15-tunnel_rod_extensometer_4_0.zip||Download AGS File"
 },
 {
   "Category": "Monitoring",
   "Description": "Example 16: Tape extensometer example",
   "Link to Guidance": "https://gitlab.com/Didymograptus/ASG4/raw/master/AGS4/guidance/16-tape_extensometer_4.pdf||Download Description Document",
   "Link to Example": "https://gitlab.com/Didymograptus/ASG4/raw/master/AGS4/examples/16-tape_extensometer_4_0.zip||Download AGS File"
 },
 {
   "Category": "Monitoring",
   "Description": "Example 17: Borehole magnetic extensometer example",
   "Link to Guidance": "https://gitlab.com/Didymograptus/ASG4/raw/master/AGS4/guidance/17-borehole_magnetic_extensometer_4.pdf||Download Description Document",
   "Link to Example": "https://gitlab.com/Didymograptus/ASG4/raw/master/AGS4/examples/examples/17-borehole_magnetic_extensometer_4_0.zip||Download AGS File"
 },
 {
   "Category": "Monitoring",
   "Description": "Example 18: Groundwater monitoring point example",
   "Link to Guidance": "https://gitlab.com/Didymograptus/ASG4/raw/master/AGS4/guidance/18-groundwater_monitoring_point_4.pdf||Download Description Document",
   "Link to Example": "https://gitlab.com/Didymograptus/ASG4/raw/master/AGS4/examples/18-groundwater_monitoring_point_4_0.zip||Download AGS File"
 }
]